total 1544
-rw-r--r--   1 bash  staff  103600 Dec  2 10:43 100kb.txt
-rw-r--r--   1 bash  staff   10091 Dec  2 10:43 10kb.txt
-rw-r--r--   1 bash  staff     124 Dec  2 10:43 1kb.txt
-rw-r--r--   1 bash  staff   25226 Dec  2 10:43 25kb.txt
-rw-r--r--   1 bash  staff   50455 Dec  2 10:43 50kb.txt
-rw-r--r--   1 bash  staff  139464 Dec  2 10:43 base64-100kb.txt
-rw-r--r--   1 bash  staff   67880 Dec  2 10:43 base64-50kb.txt
-rw-r--r--   1 bash  staff   35412 Dec  2 10:43 file1.jpg
-rw-r--r--   1 bash  staff  160915 Dec  2 10:43 file2.pdf
drwxr-xr-x  16 bash  staff     544 Dec  2 10:43 folder1
drwxr-xr-x  16 bash  staff     544 Dec  2 10:43 folder2
drwxr-xr-x  16 bash  staff     544 Dec  2 10:43 folder3
drwxr-xr-x  16 bash  staff     544 Dec  2 10:43 folder4
drwxr-xr-x  16 bash  staff     544 Dec  2 10:43 folder5
-rw-r--r--@  1 bash  staff     210 Dec  2 11:54 git-addcommit-time.rb
-rw-r--r--   1 bash  staff     956 Dec  2 11:55 revisionare1.txt
-rw-r--r--   1 bash  staff    1542 Dec  2 11:55 revisionare10.txt
-rw-r--r--   1 bash  staff    1608 Dec  2 11:55 revisionare11.txt
-rw-r--r--   1 bash  staff    1674 Dec  2 11:55 revisionare12.txt
-rw-r--r--   1 bash  staff    1740 Dec  2 11:55 revisionare13.txt
-rw-r--r--   1 bash  staff    1806 Dec  2 11:55 revisionare14.txt
-rw-r--r--   1 bash  staff    1872 Dec  2 11:55 revisionare15.txt
-rw-r--r--   1 bash  staff    1938 Dec  2 11:55 revisionare16.txt
-rw-r--r--   1 bash  staff    2004 Dec  2 11:55 revisionare17.txt
-rw-r--r--   1 bash  staff    2070 Dec  2 11:55 revisionare18.txt
-rw-r--r--   1 bash  staff    2136 Dec  2 11:55 revisionare19.txt
-rw-r--r--   1 bash  staff    1021 Dec  2 11:55 revisionare2.txt
-rw-r--r--   1 bash  staff    2202 Dec  2 11:55 revisionare20.txt
-rw-r--r--   1 bash  staff    2268 Dec  2 11:55 revisionare21.txt
-rw-r--r--   1 bash  staff    2334 Dec  2 11:55 revisionare22.txt
-rw-r--r--   1 bash  staff    2400 Dec  2 11:55 revisionare23.txt
-rw-r--r--   1 bash  staff    2466 Dec  2 11:55 revisionare24.txt
-rw-r--r--   1 bash  staff    2532 Dec  2 11:55 revisionare25.txt
-rw-r--r--   1 bash  staff    2598 Dec  2 11:55 revisionare26.txt
-rw-r--r--   1 bash  staff    2664 Dec  2 11:55 revisionare27.txt
-rw-r--r--   1 bash  staff    2730 Dec  2 11:55 revisionare28.txt
-rw-r--r--   1 bash  staff    2796 Dec  2 11:55 revisionare29.txt
-rw-r--r--   1 bash  staff    1086 Dec  2 11:55 revisionare3.txt
-rw-r--r--   1 bash  staff    2862 Dec  2 11:55 revisionare30.txt
-rw-r--r--   1 bash  staff    2928 Dec  2 11:55 revisionare31.txt
-rw-r--r--   1 bash  staff    2994 Dec  2 11:55 revisionare32.txt
-rw-r--r--   1 bash  staff    3060 Dec  2 11:55 revisionare33.txt
-rw-r--r--   1 bash  staff    3126 Dec  2 11:55 revisionare34.txt
-rw-r--r--   1 bash  staff    3192 Dec  2 11:55 revisionare35.txt
-rw-r--r--   1 bash  staff    3258 Dec  2 11:55 revisionare36.txt
-rw-r--r--   1 bash  staff    3324 Dec  2 11:55 revisionare37.txt
-rw-r--r--   1 bash  staff    3390 Dec  2 11:55 revisionare38.txt
-rw-r--r--   1 bash  staff    3456 Dec  2 11:55 revisionare39.txt
-rw-r--r--   1 bash  staff    1151 Dec  2 11:55 revisionare4.txt
-rw-r--r--   1 bash  staff    3522 Dec  2 11:55 revisionare40.txt
-rw-r--r--   1 bash  staff    3588 Dec  2 11:55 revisionare41.txt
-rw-r--r--   1 bash  staff       0 Dec  2 11:55 revisionare42.txt
-rw-r--r--   1 bash  staff    1216 Dec  2 11:55 revisionare5.txt
-rw-r--r--   1 bash  staff    1281 Dec  2 11:55 revisionare6.txt
-rw-r--r--   1 bash  staff    1346 Dec  2 11:55 revisionare7.txt
-rw-r--r--   1 bash  staff    1411 Dec  2 11:55 revisionare8.txt
-rw-r--r--   1 bash  staff    1476 Dec  2 11:55 revisionare9.txt
