50kb 50kb 50kb 50kb 50kb 50kb 50kb 50kb 50kb 50kb 50kb 50kb 50kb 50kb 50kb 50kb 50kb 50kb 50kb 50kb 50kb 50kb 50kb 50kb 50kb 
50kb 50kb 50kb 50kb 50kb 50kb 50kb 50kb 50kb 50kb 50kb 50kb 50kb 50kb 50kb 50kb 50kb 50kb 50kb 50kb 50kb 50kb 50kb 50kb 50kb 
50kb 50kb 50kb 50kb 50kb 50kb 50kb 50kb 50kb 50kb 50kb 50kb 50kb 50kb 50kb 50kb 50kb 50kb 50kb 50kb 50kb 50kb 50kb 50kb 50kb 
50kb 50kb 50kb 50kb 50kb 50kb 50kb 50kb 50kb 50kb 50kb 50kb 50kb 50kb 50kb 50kb 50kb 50kb 50kb 50kb 50kb 50kb 50kb 50kb 50kb 
50kb 50kb 50kb 50kb 50kb 50kb 50kb 50kb 50kb 50kb 50kb 50kb 50kb 50kb 50kb 50kb 50kb 50kb 50kb 50kb 50kb 50kb 50kb 50kb 50kb 
50kb 50kb 50kb 50kb 50kb 50kb 50kb 50kb 50kb 50kb 50kb 50kb 50kb 50kb 50kb 50kb 50kb 50kb 50kb 50kb 50kb 50kb 50kb 50kb 50kb 
50kb 50kb 50kb 50kb 50kb 50kb 50kb 50kb 50kb 50kb 50kb 50kb 50kb 50kb 50kb 50kb 50kb 50kb 50kb 50kb 50kb 50kb 50kb 50kb 50kb 
50kb 50kb 50kb 50kb 50kb 50kb 50kb 50kb 50kb 50kb 50kb 50kb 50kb 50kb 50kb 50kb 50kb 50kb 50kb 50kb 50kb 50kb 50kb 50kb 50kb 

50kb 50kb 50kb 50kb 50kb 50kb 50kb 50kb 50kb 50kb 50kb 50kb 50kb 50kb 50kb 50kb 50kb 50kb 50kb 50kb 50kb 50kb 50kb 50kb 50kb 
50kb 50kb 50kb 50kb 50kb 50kb 50kb 50kb 50kb 50kb 50kb 50kb 50kb 50kb 50kb 50kb 50kb 50kb 50kb 50kb 50kb 50kb 50kb 50kb 50kb 
50kb 50kb 50kb 50kb 50kb 50kb 50kb 50kb 50kb 50kb 50kb 50kb 50kb 50kb 50kb 50kb 50kb 50kb 50kb 50kb 50kb 50kb 50kb 50kb 50kb 
50kb 50kb 50kb 50kb 50kb 50kb 50kb 50kb 50kb 50kb 50kb 50kb 50kb 50kb 50kb 50kb 50kb 50kb 50kb 50kb 50kb 50kb 50kb 50kb 50kb 
50kb 50kb 50kb 50kb 50kb 50kb 50kb 50kb 50kb 50kb 50kb 50kb 50kb 50kb 50kb 50kb 50kb 50kb 50kb 50kb 50kb 50kb 50kb 50kb 50kb 
50kb 50kb 50kb 50kb 50kb 50kb 50kb 50kb 50kb 50kb 50kb 50kb 50kb 50kb 50kb 50kb 50kb 50kb 50kb 50kb 50kb 50kb 50kb 50kb 50kb 
50kb 50kb 50kb 50kb 50kb 50kb 50kb 50kb 50kb 50kb 50kb 50kb 50kb 50kb 50kb 50kb 50kb 50kb 50kb 50kb 50kb 50kb 50kb 50kb 50kb 
50kb 50kb 50kb 50kb 50kb 50kb 50kb 50kb 50kb 50kb 50kb 50kb 50kb 50kb 50kb 50kb 50kb 50kb 50kb 50kb 50kb 50kb 50kb 50kb 50kb 

50kb 50kb 50kb 50kb 50kb 50kb 50kb 50kb 50kb 50kb 50kb 50kb 50kb 50kb 50kb 50kb 50kb 50kb 50kb 50kb 50kb 50kb 50kb 50kb 50kb 
50kb 50kb 50kb 50kb 50kb 50kb 50kb 50kb 50kb 50kb 50kb 50kb 50kb 50kb 50kb 50kb 50kb 50kb 50kb 50kb 50kb 50kb 50kb 50kb 50kb 
50kb 50kb 50kb 50kb 50kb 50kb 50kb 50kb 50kb 50kb 50kb 50kb 50kb 50kb 50kb 50kb 50kb 50kb 50kb 50kb 50kb 50kb 50kb 50kb 50kb 
50kb 50kb 50kb 50kb 50kb 50kb 50kb 50kb 50kb 50kb 50kb 50kb 50kb 50kb 50kb 50kb 50kb 50kb 50kb 50kb 50kb 50kb 50kb 50kb 50kb 
50kb 50kb 50kb 50kb 50kb 50kb 50kb 50kb 50kb 50kb 50kb 50kb 50kb 50kb 50kb 50kb 50kb 50kb 50kb 50kb 50kb 50kb 50kb 50kb 50kb 
50kb 50kb 50kb 50kb 50kb 50kb 50kb 50kb 50kb 50kb 50kb 50kb 50kb 50kb 50kb 50kb 50kb 50kb 50kb 50kb 50kb 50kb 50kb 50kb 50kb 
50kb 50kb 50kb 50kb 50kb 50kb 50kb 50kb 50kb 50kb 50kb 50kb 50kb 50kb 50kb 50kb 50kb 50kb 50kb 50kb 50kb 50kb 50kb 50kb 50kb 
50kb 50kb 50kb 50kb 50kb 50kb 50kb 50kb 50kb 50kb 50kb 50kb 50kb 50kb 50kb 50kb 50kb 50kb 50kb 50kb 50kb 50kb 50kb 50kb 50kb 

50kb 50kb 50kb 50kb 50kb 50kb 50kb 50kb 50kb 50kb 50kb 50kb 50kb 50kb 50kb 50kb 50kb 50kb 50kb 50kb 50kb 50kb 50kb 50kb 50kb 
50kb 50kb 50kb 50kb 50kb 50kb 50kb 50kb 50kb 50kb 50kb 50kb 50kb 50kb 50kb 50kb 50kb 50kb 50kb 50kb 50kb 50kb 50kb 50kb 50kb 
50kb 50kb 50kb 50kb 50kb 50kb 50kb 50kb 50kb 50kb 50kb 50kb 50kb 50kb 50kb 50kb 50kb 50kb 50kb 50kb 50kb 50kb 50kb 50kb 50kb 
50kb 50kb 50kb 50kb 50kb 50kb 50kb 50kb 50kb 50kb 50kb 50kb 50kb 50kb 50kb 50kb 50kb 50kb 50kb 50kb 50kb 50kb 50kb 50kb 50kb 
50kb 50kb 50kb 50kb 50kb 50kb 50kb 50kb 50kb 50kb 50kb 50kb 50kb 50kb 50kb 50kb 50kb 50kb 50kb 50kb 50kb 50kb 50kb 50kb 50kb 
50kb 50kb 50kb 50kb 50kb 50kb 50kb 50kb 50kb 50kb 50kb 50kb 50kb 50kb 50kb 50kb 50kb 50kb 50kb 50kb 50kb 50kb 50kb 50kb 50kb 
50kb 50kb 50kb 50kb 50kb 50kb 50kb 50kb 50kb 50kb 50kb 50kb 50kb 50kb 50kb 50kb 50kb 50kb 50kb 50kb 50kb 50kb 50kb 50kb 50kb 
50kb 50kb 50kb 50kb 50kb 50kb 50kb 50kb 50kb 50kb 50kb 50kb 50kb 50kb 50kb 50kb 50kb 50kb 50kb 50kb 50kb 50kb 50kb 50kb 50kb 

50kb 50kb 50kb 50kb 50kb 50kb 50kb 50kb 50kb 50kb 50kb 50kb 50kb 50kb 50kb 50kb 50kb 50kb 50kb 50kb 50kb 50kb 50kb 50kb 50kb 
50kb 50kb 50kb 50kb 50kb 50kb 50kb 50kb 50kb 50kb 50kb 50kb 50kb 50kb 50kb 50kb 50kb 50kb 50kb 50kb 50kb 50kb 50kb 50kb 50kb 
50kb 50kb 50kb 50kb 50kb 50kb 50kb 50kb 50kb 50kb 50kb 50kb 50kb 50kb 50kb 50kb 50kb 50kb 50kb 50kb 50kb 50kb 50kb 50kb 50kb 
50kb 50kb 50kb 50kb 50kb 50kb 50kb 50kb 50kb 50kb 50kb 50kb 50kb 50kb 50kb 50kb 50kb 50kb 50kb 50kb 50kb 50kb 50kb 50kb 50kb 
50kb 50kb 50kb 50kb 50kb 50kb 50kb 50kb 50kb 50kb 50kb 50kb 50kb 50kb 50kb 50kb 50kb 50kb 50kb 50kb 50kb 50kb 50kb 50kb 50kb 
50kb 50kb 50kb 50kb 50kb 50kb 50kb 50kb 50kb 50kb 50kb 50kb 50kb 50kb 50kb 50kb 50kb 50kb 50kb 50kb 50kb 50kb 50kb 50kb 50kb 
50kb 50kb 50kb 50kb 50kb 50kb 50kb 50kb 50kb 50kb 50kb 50kb 50kb 50kb 50kb 50kb 50kb 50kb 50kb 50kb 50kb 50kb 50kb 50kb 50kb 
50kb 50kb 50kb 50kb 50kb 50kb 50kb 50kb 50kb 50kb 50kb 50kb 50kb 50kb 50kb 50kb 50kb 50kb 50kb 50kb 50kb 50kb 50kb 50kb 50kb 

50kb 50kb 50kb 50kb 50kb 50kb 50kb 50kb 50kb 50kb 50kb 50kb 50kb 50kb 50kb 50kb 50kb 50kb 50kb 50kb 50kb 50kb 50kb 50kb 50kb 
50kb 50kb 50kb 50kb 50kb 50kb 50kb 50kb 50kb 50kb 50kb 50kb 50kb 50kb 50kb 50kb 50kb 50kb 50kb 50kb 50kb 50kb 50kb 50kb 50kb 
50kb 50kb 50kb 50kb 50kb 50kb 50kb 50kb 50kb 50kb 50kb 50kb 50kb 50kb 50kb 50kb 50kb 50kb 50kb 50kb 50kb 50kb 50kb 50kb 50kb 
50kb 50kb 50kb 50kb 50kb 50kb 50kb 50kb 50kb 50kb 50kb 50kb 50kb 50kb 50kb 50kb 50kb 50kb 50kb 50kb 50kb 50kb 50kb 50kb 50kb 
50kb 50kb 50kb 50kb 50kb 50kb 50kb 50kb 50kb 50kb 50kb 50kb 50kb 50kb 50kb 50kb 50kb 50kb 50kb 50kb 50kb 50kb 50kb 50kb 50kb 
50kb 50kb 50kb 50kb 50kb 50kb 50kb 50kb 50kb 50kb 50kb 50kb 50kb 50kb 50kb 50kb 50kb 50kb 50kb 50kb 50kb 50kb 50kb 50kb 50kb 
50kb 50kb 50kb 50kb 50kb 50kb 50kb 50kb 50kb 50kb 50kb 50kb 50kb 50kb 50kb 50kb 50kb 50kb 50kb 50kb 50kb 50kb 50kb 50kb 50kb 
50kb 50kb 50kb 50kb 50kb 50kb 50kb 50kb 50kb 50kb 50kb 50kb 50kb 50kb 50kb 50kb 50kb 50kb 50kb 50kb 50kb 50kb 50kb 50kb 50kb 

50kb 50kb 50kb 50kb 50kb 50kb 50kb 50kb 50kb 50kb 50kb 50kb 50kb 50kb 50kb 50kb 50kb 50kb 50kb 50kb 50kb 50kb 50kb 50kb 50kb 
50kb 50kb 50kb 50kb 50kb 50kb 50kb 50kb 50kb 50kb 50kb 50kb 50kb 50kb 50kb 50kb 50kb 50kb 50kb 50kb 50kb 50kb 50kb 50kb 50kb 
50kb 50kb 50kb 50kb 50kb 50kb 50kb 50kb 50kb 50kb 50kb 50kb 50kb 50kb 50kb 50kb 50kb 50kb 50kb 50kb 50kb 50kb 50kb 50kb 50kb 
50kb 50kb 50kb 50kb 50kb 50kb 50kb 50kb 50kb 50kb 50kb 50kb 50kb 50kb 50kb 50kb 50kb 50kb 50kb 50kb 50kb 50kb 50kb 50kb 50kb 
50kb 50kb 50kb 50kb 50kb 50kb 50kb 50kb 50kb 50kb 50kb 50kb 50kb 50kb 50kb 50kb 50kb 50kb 50kb 50kb 50kb 50kb 50kb 50kb 50kb 
50kb 50kb 50kb 50kb 50kb 50kb 50kb 50kb 50kb 50kb 50kb 50kb 50kb 50kb 50kb 50kb 50kb 50kb 50kb 50kb 50kb 50kb 50kb 50kb 50kb 
50kb 50kb 50kb 50kb 50kb 50kb 50kb 50kb 50kb 50kb 50kb 50kb 50kb 50kb 50kb 50kb 50kb 50kb 50kb 50kb 50kb 50kb 50kb 50kb 50kb 
50kb 50kb 50kb 50kb 50kb 50kb 50kb 50kb 50kb 50kb 50kb 50kb 50kb 50kb 50kb 50kb 50kb 50kb 50kb 50kb 50kb 50kb 50kb 50kb 50kb 

50kb 50kb 50kb 50kb 50kb 50kb 50kb 50kb 50kb 50kb 50kb 50kb 50kb 50kb 50kb 50kb 50kb 50kb 50kb 50kb 50kb 50kb 50kb 50kb 50kb 
50kb 50kb 50kb 50kb 50kb 50kb 50kb 50kb 50kb 50kb 50kb 50kb 50kb 50kb 50kb 50kb 50kb 50kb 50kb 50kb 50kb 50kb 50kb 50kb 50kb 
50kb 50kb 50kb 50kb 50kb 50kb 50kb 50kb 50kb 50kb 50kb 50kb 50kb 50kb 50kb 50kb 50kb 50kb 50kb 50kb 50kb 50kb 50kb 50kb 50kb 
50kb 50kb 50kb 50kb 50kb 50kb 50kb 50kb 50kb 50kb 50kb 50kb 50kb 50kb 50kb 50kb 50kb 50kb 50kb 50kb 50kb 50kb 50kb 50kb 50kb 
50kb 50kb 50kb 50kb 50kb 50kb 50kb 50kb 50kb 50kb 50kb 50kb 50kb 50kb 50kb 50kb 50kb 50kb 50kb 50kb 50kb 50kb 50kb 50kb 50kb 
50kb 50kb 50kb 50kb 50kb 50kb 50kb 50kb 50kb 50kb 50kb 50kb 50kb 50kb 50kb 50kb 50kb 50kb 50kb 50kb 50kb 50kb 50kb 50kb 50kb 
50kb 50kb 50kb 50kb 50kb 50kb 50kb 50kb 50kb 50kb 50kb 50kb 50kb 50kb 50kb 50kb 50kb 50kb 50kb 50kb 50kb 50kb 50kb 50kb 50kb 
50kb 50kb 50kb 50kb 50kb 50kb 50kb 50kb 50kb 50kb 50kb 50kb 50kb 50kb 50kb 50kb 50kb 50kb 50kb 50kb 50kb 50kb 50kb 50kb 50kb 

50kb 50kb 50kb 50kb 50kb 50kb 50kb 50kb 50kb 50kb 50kb 50kb 50kb 50kb 50kb 50kb 50kb 50kb 50kb 50kb 50kb 50kb 50kb 50kb 50kb 
50kb 50kb 50kb 50kb 50kb 50kb 50kb 50kb 50kb 50kb 50kb 50kb 50kb 50kb 50kb 50kb 50kb 50kb 50kb 50kb 50kb 50kb 50kb 50kb 50kb 
50kb 50kb 50kb 50kb 50kb 50kb 50kb 50kb 50kb 50kb 50kb 50kb 50kb 50kb 50kb 50kb 50kb 50kb 50kb 50kb 50kb 50kb 50kb 50kb 50kb 
50kb 50kb 50kb 50kb 50kb 50kb 50kb 50kb 50kb 50kb 50kb 50kb 50kb 50kb 50kb 50kb 50kb 50kb 50kb 50kb 50kb 50kb 50kb 50kb 50kb 
50kb 50kb 50kb 50kb 50kb 50kb 50kb 50kb 50kb 50kb 50kb 50kb 50kb 50kb 50kb 50kb 50kb 50kb 50kb 50kb 50kb 50kb 50kb 50kb 50kb 
50kb 50kb 50kb 50kb 50kb 50kb 50kb 50kb 50kb 50kb 50kb 50kb 50kb 50kb 50kb 50kb 50kb 50kb 50kb 50kb 50kb 50kb 50kb 50kb 50kb 
50kb 50kb 50kb 50kb 50kb 50kb 50kb 50kb 50kb 50kb 50kb 50kb 50kb 50kb 50kb 50kb 50kb 50kb 50kb 50kb 50kb 50kb 50kb 50kb 50kb 
50kb 50kb 50kb 50kb 50kb 50kb 50kb 50kb 50kb 50kb 50kb 50kb 50kb 50kb 50kb 50kb 50kb 50kb 50kb 50kb 50kb 50kb 50kb 50kb 50kb 

50kb 50kb 50kb 50kb 50kb 50kb 50kb 50kb 50kb 50kb 50kb 50kb 50kb 50kb 50kb 50kb 50kb 50kb 50kb 50kb 50kb 50kb 50kb 50kb 50kb 
50kb 50kb 50kb 50kb 50kb 50kb 50kb 50kb 50kb 50kb 50kb 50kb 50kb 50kb 50kb 50kb 50kb 50kb 50kb 50kb 50kb 50kb 50kb 50kb 50kb 
50kb 50kb 50kb 50kb 50kb 50kb 50kb 50kb 50kb 50kb 50kb 50kb 50kb 50kb 50kb 50kb 50kb 50kb 50kb 50kb 50kb 50kb 50kb 50kb 50kb 
50kb 50kb 50kb 50kb 50kb 50kb 50kb 50kb 50kb 50kb 50kb 50kb 50kb 50kb 50kb 50kb 50kb 50kb 50kb 50kb 50kb 50kb 50kb 50kb 50kb 
50kb 50kb 50kb 50kb 50kb 50kb 50kb 50kb 50kb 50kb 50kb 50kb 50kb 50kb 50kb 50kb 50kb 50kb 50kb 50kb 50kb 50kb 50kb 50kb 50kb 
50kb 50kb 50kb 50kb 50kb 50kb 50kb 50kb 50kb 50kb 50kb 50kb 50kb 50kb 50kb 50kb 50kb 50kb 50kb 50kb 50kb 50kb 50kb 50kb 50kb 
50kb 50kb 50kb 50kb 50kb 50kb 50kb 50kb 50kb 50kb 50kb 50kb 50kb 50kb 50kb 50kb 50kb 50kb 50kb 50kb 50kb 50kb 50kb 50kb 50kb 
50kb 50kb 50kb 50kb 50kb 50kb 50kb 50kb 50kb 50kb 50kb 50kb 50kb 50kb 50kb 50kb 50kb 50kb 50kb 50kb 50kb 50kb 50kb 50kb 50kb 


50kb 50kb 50kb 50kb 50kb 50kb 50kb 50kb 50kb 50kb 50kb 50kb 50kb 50kb 50kb 50kb 50kb 50kb 50kb 50kb 50kb 50kb 50kb 50kb 50kb 
50kb 50kb 50kb 50kb 50kb 50kb 50kb 50kb 50kb 50kb 50kb 50kb 50kb 50kb 50kb 50kb 50kb 50kb 50kb 50kb 50kb 50kb 50kb 50kb 50kb 
50kb 50kb 50kb 50kb 50kb 50kb 50kb 50kb 50kb 50kb 50kb 50kb 50kb 50kb 50kb 50kb 50kb 50kb 50kb 50kb 50kb 50kb 50kb 50kb 50kb 
50kb 50kb 50kb 50kb 50kb 50kb 50kb 50kb 50kb 50kb 50kb 50kb 50kb 50kb 50kb 50kb 50kb 50kb 50kb 50kb 50kb 50kb 50kb 50kb 50kb 
50kb 50kb 50kb 50kb 50kb 50kb 50kb 50kb 50kb 50kb 50kb 50kb 50kb 50kb 50kb 50kb 50kb 50kb 50kb 50kb 50kb 50kb 50kb 50kb 50kb 
50kb 50kb 50kb 50kb 50kb 50kb 50kb 50kb 50kb 50kb 50kb 50kb 50kb 50kb 50kb 50kb 50kb 50kb 50kb 50kb 50kb 50kb 50kb 50kb 50kb 
50kb 50kb 50kb 50kb 50kb 50kb 50kb 50kb 50kb 50kb 50kb 50kb 50kb 50kb 50kb 50kb 50kb 50kb 50kb 50kb 50kb 50kb 50kb 50kb 50kb 
50kb 50kb 50kb 50kb 50kb 50kb 50kb 50kb 50kb 50kb 50kb 50kb 50kb 50kb 50kb 50kb 50kb 50kb 50kb 50kb 50kb 50kb 50kb 50kb 50kb 

50kb 50kb 50kb 50kb 50kb 50kb 50kb 50kb 50kb 50kb 50kb 50kb 50kb 50kb 50kb 50kb 50kb 50kb 50kb 50kb 50kb 50kb 50kb 50kb 50kb 
50kb 50kb 50kb 50kb 50kb 50kb 50kb 50kb 50kb 50kb 50kb 50kb 50kb 50kb 50kb 50kb 50kb 50kb 50kb 50kb 50kb 50kb 50kb 50kb 50kb 
50kb 50kb 50kb 50kb 50kb 50kb 50kb 50kb 50kb 50kb 50kb 50kb 50kb 50kb 50kb 50kb 50kb 50kb 50kb 50kb 50kb 50kb 50kb 50kb 50kb 
50kb 50kb 50kb 50kb 50kb 50kb 50kb 50kb 50kb 50kb 50kb 50kb 50kb 50kb 50kb 50kb 50kb 50kb 50kb 50kb 50kb 50kb 50kb 50kb 50kb 
50kb 50kb 50kb 50kb 50kb 50kb 50kb 50kb 50kb 50kb 50kb 50kb 50kb 50kb 50kb 50kb 50kb 50kb 50kb 50kb 50kb 50kb 50kb 50kb 50kb 
50kb 50kb 50kb 50kb 50kb 50kb 50kb 50kb 50kb 50kb 50kb 50kb 50kb 50kb 50kb 50kb 50kb 50kb 50kb 50kb 50kb 50kb 50kb 50kb 50kb 
50kb 50kb 50kb 50kb 50kb 50kb 50kb 50kb 50kb 50kb 50kb 50kb 50kb 50kb 50kb 50kb 50kb 50kb 50kb 50kb 50kb 50kb 50kb 50kb 50kb 
50kb 50kb 50kb 50kb 50kb 50kb 50kb 50kb 50kb 50kb 50kb 50kb 50kb 50kb 50kb 50kb 50kb 50kb 50kb 50kb 50kb 50kb 50kb 50kb 50kb 

50kb 50kb 50kb 50kb 50kb 50kb 50kb 50kb 50kb 50kb 50kb 50kb 50kb 50kb 50kb 50kb 50kb 50kb 50kb 50kb 50kb 50kb 50kb 50kb 50kb 
50kb 50kb 50kb 50kb 50kb 50kb 50kb 50kb 50kb 50kb 50kb 50kb 50kb 50kb 50kb 50kb 50kb 50kb 50kb 50kb 50kb 50kb 50kb 50kb 50kb 
50kb 50kb 50kb 50kb 50kb 50kb 50kb 50kb 50kb 50kb 50kb 50kb 50kb 50kb 50kb 50kb 50kb 50kb 50kb 50kb 50kb 50kb 50kb 50kb 50kb 
50kb 50kb 50kb 50kb 50kb 50kb 50kb 50kb 50kb 50kb 50kb 50kb 50kb 50kb 50kb 50kb 50kb 50kb 50kb 50kb 50kb 50kb 50kb 50kb 50kb 
50kb 50kb 50kb 50kb 50kb 50kb 50kb 50kb 50kb 50kb 50kb 50kb 50kb 50kb 50kb 50kb 50kb 50kb 50kb 50kb 50kb 50kb 50kb 50kb 50kb 
50kb 50kb 50kb 50kb 50kb 50kb 50kb 50kb 50kb 50kb 50kb 50kb 50kb 50kb 50kb 50kb 50kb 50kb 50kb 50kb 50kb 50kb 50kb 50kb 50kb 
50kb 50kb 50kb 50kb 50kb 50kb 50kb 50kb 50kb 50kb 50kb 50kb 50kb 50kb 50kb 50kb 50kb 50kb 50kb 50kb 50kb 50kb 50kb 50kb 50kb 
50kb 50kb 50kb 50kb 50kb 50kb 50kb 50kb 50kb 50kb 50kb 50kb 50kb 50kb 50kb 50kb 50kb 50kb 50kb 50kb 50kb 50kb 50kb 50kb 50kb 

50kb 50kb 50kb 50kb 50kb 50kb 50kb 50kb 50kb 50kb 50kb 50kb 50kb 50kb 50kb 50kb 50kb 50kb 50kb 50kb 50kb 50kb 50kb 50kb 50kb 
50kb 50kb 50kb 50kb 50kb 50kb 50kb 50kb 50kb 50kb 50kb 50kb 50kb 50kb 50kb 50kb 50kb 50kb 50kb 50kb 50kb 50kb 50kb 50kb 50kb 
50kb 50kb 50kb 50kb 50kb 50kb 50kb 50kb 50kb 50kb 50kb 50kb 50kb 50kb 50kb 50kb 50kb 50kb 50kb 50kb 50kb 50kb 50kb 50kb 50kb 
50kb 50kb 50kb 50kb 50kb 50kb 50kb 50kb 50kb 50kb 50kb 50kb 50kb 50kb 50kb 50kb 50kb 50kb 50kb 50kb 50kb 50kb 50kb 50kb 50kb 
50kb 50kb 50kb 50kb 50kb 50kb 50kb 50kb 50kb 50kb 50kb 50kb 50kb 50kb 50kb 50kb 50kb 50kb 50kb 50kb 50kb 50kb 50kb 50kb 50kb 
50kb 50kb 50kb 50kb 50kb 50kb 50kb 50kb 50kb 50kb 50kb 50kb 50kb 50kb 50kb 50kb 50kb 50kb 50kb 50kb 50kb 50kb 50kb 50kb 50kb 
50kb 50kb 50kb 50kb 50kb 50kb 50kb 50kb 50kb 50kb 50kb 50kb 50kb 50kb 50kb 50kb 50kb 50kb 50kb 50kb 50kb 50kb 50kb 50kb 50kb 
50kb 50kb 50kb 50kb 50kb 50kb 50kb 50kb 50kb 50kb 50kb 50kb 50kb 50kb 50kb 50kb 50kb 50kb 50kb 50kb 50kb 50kb 50kb 50kb 50kb 

50kb 50kb 50kb 50kb 50kb 50kb 50kb 50kb 50kb 50kb 50kb 50kb 50kb 50kb 50kb 50kb 50kb 50kb 50kb 50kb 50kb 50kb 50kb 50kb 50kb 
50kb 50kb 50kb 50kb 50kb 50kb 50kb 50kb 50kb 50kb 50kb 50kb 50kb 50kb 50kb 50kb 50kb 50kb 50kb 50kb 50kb 50kb 50kb 50kb 50kb 
50kb 50kb 50kb 50kb 50kb 50kb 50kb 50kb 50kb 50kb 50kb 50kb 50kb 50kb 50kb 50kb 50kb 50kb 50kb 50kb 50kb 50kb 50kb 50kb 50kb 
50kb 50kb 50kb 50kb 50kb 50kb 50kb 50kb 50kb 50kb 50kb 50kb 50kb 50kb 50kb 50kb 50kb 50kb 50kb 50kb 50kb 50kb 50kb 50kb 50kb 
50kb 50kb 50kb 50kb 50kb 50kb 50kb 50kb 50kb 50kb 50kb 50kb 50kb 50kb 50kb 50kb 50kb 50kb 50kb 50kb 50kb 50kb 50kb 50kb 50kb 
50kb 50kb 50kb 50kb 50kb 50kb 50kb 50kb 50kb 50kb 50kb 50kb 50kb 50kb 50kb 50kb 50kb 50kb 50kb 50kb 50kb 50kb 50kb 50kb 50kb 
50kb 50kb 50kb 50kb 50kb 50kb 50kb 50kb 50kb 50kb 50kb 50kb 50kb 50kb 50kb 50kb 50kb 50kb 50kb 50kb 50kb 50kb 50kb 50kb 50kb 
50kb 50kb 50kb 50kb 50kb 50kb 50kb 50kb 50kb 50kb 50kb 50kb 50kb 50kb 50kb 50kb 50kb 50kb 50kb 50kb 50kb 50kb 50kb 50kb 50kb 

50kb 50kb 50kb 50kb 50kb 50kb 50kb 50kb 50kb 50kb 50kb 50kb 50kb 50kb 50kb 50kb 50kb 50kb 50kb 50kb 50kb 50kb 50kb 50kb 50kb 
50kb 50kb 50kb 50kb 50kb 50kb 50kb 50kb 50kb 50kb 50kb 50kb 50kb 50kb 50kb 50kb 50kb 50kb 50kb 50kb 50kb 50kb 50kb 50kb 50kb 
50kb 50kb 50kb 50kb 50kb 50kb 50kb 50kb 50kb 50kb 50kb 50kb 50kb 50kb 50kb 50kb 50kb 50kb 50kb 50kb 50kb 50kb 50kb 50kb 50kb 
50kb 50kb 50kb 50kb 50kb 50kb 50kb 50kb 50kb 50kb 50kb 50kb 50kb 50kb 50kb 50kb 50kb 50kb 50kb 50kb 50kb 50kb 50kb 50kb 50kb 
50kb 50kb 50kb 50kb 50kb 50kb 50kb 50kb 50kb 50kb 50kb 50kb 50kb 50kb 50kb 50kb 50kb 50kb 50kb 50kb 50kb 50kb 50kb 50kb 50kb 
50kb 50kb 50kb 50kb 50kb 50kb 50kb 50kb 50kb 50kb 50kb 50kb 50kb 50kb 50kb 50kb 50kb 50kb 50kb 50kb 50kb 50kb 50kb 50kb 50kb 
50kb 50kb 50kb 50kb 50kb 50kb 50kb 50kb 50kb 50kb 50kb 50kb 50kb 50kb 50kb 50kb 50kb 50kb 50kb 50kb 50kb 50kb 50kb 50kb 50kb 
50kb 50kb 50kb 50kb 50kb 50kb 50kb 50kb 50kb 50kb 50kb 50kb 50kb 50kb 50kb 50kb 50kb 50kb 50kb 50kb 50kb 50kb 50kb 50kb 50kb 

50kb 50kb 50kb 50kb 50kb 50kb 50kb 50kb 50kb 50kb 50kb 50kb 50kb 50kb 50kb 50kb 50kb 50kb 50kb 50kb 50kb 50kb 50kb 50kb 50kb 
50kb 50kb 50kb 50kb 50kb 50kb 50kb 50kb 50kb 50kb 50kb 50kb 50kb 50kb 50kb 50kb 50kb 50kb 50kb 50kb 50kb 50kb 50kb 50kb 50kb 
50kb 50kb 50kb 50kb 50kb 50kb 50kb 50kb 50kb 50kb 50kb 50kb 50kb 50kb 50kb 50kb 50kb 50kb 50kb 50kb 50kb 50kb 50kb 50kb 50kb 
50kb 50kb 50kb 50kb 50kb 50kb 50kb 50kb 50kb 50kb 50kb 50kb 50kb 50kb 50kb 50kb 50kb 50kb 50kb 50kb 50kb 50kb 50kb 50kb 50kb 
50kb 50kb 50kb 50kb 50kb 50kb 50kb 50kb 50kb 50kb 50kb 50kb 50kb 50kb 50kb 50kb 50kb 50kb 50kb 50kb 50kb 50kb 50kb 50kb 50kb 
50kb 50kb 50kb 50kb 50kb 50kb 50kb 50kb 50kb 50kb 50kb 50kb 50kb 50kb 50kb 50kb 50kb 50kb 50kb 50kb 50kb 50kb 50kb 50kb 50kb 
50kb 50kb 50kb 50kb 50kb 50kb 50kb 50kb 50kb 50kb 50kb 50kb 50kb 50kb 50kb 50kb 50kb 50kb 50kb 50kb 50kb 50kb 50kb 50kb 50kb 
50kb 50kb 50kb 50kb 50kb 50kb 50kb 50kb 50kb 50kb 50kb 50kb 50kb 50kb 50kb 50kb 50kb 50kb 50kb 50kb 50kb 50kb 50kb 50kb 50kb 

50kb 50kb 50kb 50kb 50kb 50kb 50kb 50kb 50kb 50kb 50kb 50kb 50kb 50kb 50kb 50kb 50kb 50kb 50kb 50kb 50kb 50kb 50kb 50kb 50kb 
50kb 50kb 50kb 50kb 50kb 50kb 50kb 50kb 50kb 50kb 50kb 50kb 50kb 50kb 50kb 50kb 50kb 50kb 50kb 50kb 50kb 50kb 50kb 50kb 50kb 
50kb 50kb 50kb 50kb 50kb 50kb 50kb 50kb 50kb 50kb 50kb 50kb 50kb 50kb 50kb 50kb 50kb 50kb 50kb 50kb 50kb 50kb 50kb 50kb 50kb 
50kb 50kb 50kb 50kb 50kb 50kb 50kb 50kb 50kb 50kb 50kb 50kb 50kb 50kb 50kb 50kb 50kb 50kb 50kb 50kb 50kb 50kb 50kb 50kb 50kb 
50kb 50kb 50kb 50kb 50kb 50kb 50kb 50kb 50kb 50kb 50kb 50kb 50kb 50kb 50kb 50kb 50kb 50kb 50kb 50kb 50kb 50kb 50kb 50kb 50kb 
50kb 50kb 50kb 50kb 50kb 50kb 50kb 50kb 50kb 50kb 50kb 50kb 50kb 50kb 50kb 50kb 50kb 50kb 50kb 50kb 50kb 50kb 50kb 50kb 50kb 
50kb 50kb 50kb 50kb 50kb 50kb 50kb 50kb 50kb 50kb 50kb 50kb 50kb 50kb 50kb 50kb 50kb 50kb 50kb 50kb 50kb 50kb 50kb 50kb 50kb 
50kb 50kb 50kb 50kb 50kb 50kb 50kb 50kb 50kb 50kb 50kb 50kb 50kb 50kb 50kb 50kb 50kb 50kb 50kb 50kb 50kb 50kb 50kb 50kb 50kb 

50kb 50kb 50kb 50kb 50kb 50kb 50kb 50kb 50kb 50kb 50kb 50kb 50kb 50kb 50kb 50kb 50kb 50kb 50kb 50kb 50kb 50kb 50kb 50kb 50kb 
50kb 50kb 50kb 50kb 50kb 50kb 50kb 50kb 50kb 50kb 50kb 50kb 50kb 50kb 50kb 50kb 50kb 50kb 50kb 50kb 50kb 50kb 50kb 50kb 50kb 
50kb 50kb 50kb 50kb 50kb 50kb 50kb 50kb 50kb 50kb 50kb 50kb 50kb 50kb 50kb 50kb 50kb 50kb 50kb 50kb 50kb 50kb 50kb 50kb 50kb 
50kb 50kb 50kb 50kb 50kb 50kb 50kb 50kb 50kb 50kb 50kb 50kb 50kb 50kb 50kb 50kb 50kb 50kb 50kb 50kb 50kb 50kb 50kb 50kb 50kb 
50kb 50kb 50kb 50kb 50kb 50kb 50kb 50kb 50kb 50kb 50kb 50kb 50kb 50kb 50kb 50kb 50kb 50kb 50kb 50kb 50kb 50kb 50kb 50kb 50kb 
50kb 50kb 50kb 50kb 50kb 50kb 50kb 50kb 50kb 50kb 50kb 50kb 50kb 50kb 50kb 50kb 50kb 50kb 50kb 50kb 50kb 50kb 50kb 50kb 50kb 
50kb 50kb 50kb 50kb 50kb 50kb 50kb 50kb 50kb 50kb 50kb 50kb 50kb 50kb 50kb 50kb 50kb 50kb 50kb 50kb 50kb 50kb 50kb 50kb 50kb 
50kb 50kb 50kb 50kb 50kb 50kb 50kb 50kb 50kb 50kb 50kb 50kb 50kb 50kb 50kb 50kb 50kb 50kb 50kb 50kb 50kb 50kb 50kb 50kb 50kb 

50kb 50kb 50kb 50kb 50kb 50kb 50kb 50kb 50kb 50kb 50kb 50kb 50kb 50kb 50kb 50kb 50kb 50kb 50kb 50kb 50kb 50kb 50kb 50kb 50kb 
50kb 50kb 50kb 50kb 50kb 50kb 50kb 50kb 50kb 50kb 50kb 50kb 50kb 50kb 50kb 50kb 50kb 50kb 50kb 50kb 50kb 50kb 50kb 50kb 50kb 
50kb 50kb 50kb 50kb 50kb 50kb 50kb 50kb 50kb 50kb 50kb 50kb 50kb 50kb 50kb 50kb 50kb 50kb 50kb 50kb 50kb 50kb 50kb 50kb 50kb 
50kb 50kb 50kb 50kb 50kb 50kb 50kb 50kb 50kb 50kb 50kb 50kb 50kb 50kb 50kb 50kb 50kb 50kb 50kb 50kb 50kb 50kb 50kb 50kb 50kb 
50kb 50kb 50kb 50kb 50kb 50kb 50kb 50kb 50kb 50kb 50kb 50kb 50kb 50kb 50kb 50kb 50kb 50kb 50kb 50kb 50kb 50kb 50kb 50kb 50kb 
50kb 50kb 50kb 50kb 50kb 50kb 50kb 50kb 50kb 50kb 50kb 50kb 50kb 50kb 50kb 50kb 50kb 50kb 50kb 50kb 50kb 50kb 50kb 50kb 50kb 
50kb 50kb 50kb 50kb 50kb 50kb 50kb 50kb 50kb 50kb 50kb 50kb 50kb 50kb 50kb 50kb 50kb 50kb 50kb 50kb 50kb 50kb 50kb 50kb 50kb 
50kb 50kb 50kb 50kb 50kb 50kb 50kb 50kb 50kb 50kb 50kb 50kb 50kb 50kb 50kb 50kb 50kb 50kb 50kb 50kb 50kb 50kb 50kb 50kb 50kb 


50kb 50kb 50kb 50kb 50kb 50kb 50kb 50kb 50kb 50kb 50kb 50kb 50kb 50kb 50kb 50kb 50kb 50kb 50kb 50kb 50kb 50kb 50kb 50kb 50kb 
50kb 50kb 50kb 50kb 50kb 50kb 50kb 50kb 50kb 50kb 50kb 50kb 50kb 50kb 50kb 50kb 50kb 50kb 50kb 50kb 50kb 50kb 50kb 50kb 50kb 
50kb 50kb 50kb 50kb 50kb 50kb 50kb 50kb 50kb 50kb 50kb 50kb 50kb 50kb 50kb 50kb 50kb 50kb 50kb 50kb 50kb 50kb 50kb 50kb 50kb 
50kb 50kb 50kb 50kb 50kb 50kb 50kb 50kb 50kb 50kb 50kb 50kb 50kb 50kb 50kb 50kb 50kb 50kb 50kb 50kb 50kb 50kb 50kb 50kb 50kb 
50kb 50kb 50kb 50kb 50kb 50kb 50kb 50kb 50kb 50kb 50kb 50kb 50kb 50kb 50kb 50kb 50kb 50kb 50kb 50kb 50kb 50kb 50kb 50kb 50kb 
50kb 50kb 50kb 50kb 50kb 50kb 50kb 50kb 50kb 50kb 50kb 50kb 50kb 50kb 50kb 50kb 50kb 50kb 50kb 50kb 50kb 50kb 50kb 50kb 50kb 
50kb 50kb 50kb 50kb 50kb 50kb 50kb 50kb 50kb 50kb 50kb 50kb 50kb 50kb 50kb 50kb 50kb 50kb 50kb 50kb 50kb 50kb 50kb 50kb 50kb 
50kb 50kb 50kb 50kb 50kb 50kb 50kb 50kb 50kb 50kb 50kb 50kb 50kb 50kb 50kb 50kb 50kb 50kb 50kb 50kb 50kb 50kb 50kb 50kb 50kb 

50kb 50kb 50kb 50kb 50kb 50kb 50kb 50kb 50kb 50kb 50kb 50kb 50kb 50kb 50kb 50kb 50kb 50kb 50kb 50kb 50kb 50kb 50kb 50kb 50kb 
50kb 50kb 50kb 50kb 50kb 50kb 50kb 50kb 50kb 50kb 50kb 50kb 50kb 50kb 50kb 50kb 50kb 50kb 50kb 50kb 50kb 50kb 50kb 50kb 50kb 
50kb 50kb 50kb 50kb 50kb 50kb 50kb 50kb 50kb 50kb 50kb 50kb 50kb 50kb 50kb 50kb 50kb 50kb 50kb 50kb 50kb 50kb 50kb 50kb 50kb 
50kb 50kb 50kb 50kb 50kb 50kb 50kb 50kb 50kb 50kb 50kb 50kb 50kb 50kb 50kb 50kb 50kb 50kb 50kb 50kb 50kb 50kb 50kb 50kb 50kb 
50kb 50kb 50kb 50kb 50kb 50kb 50kb 50kb 50kb 50kb 50kb 50kb 50kb 50kb 50kb 50kb 50kb 50kb 50kb 50kb 50kb 50kb 50kb 50kb 50kb 
50kb 50kb 50kb 50kb 50kb 50kb 50kb 50kb 50kb 50kb 50kb 50kb 50kb 50kb 50kb 50kb 50kb 50kb 50kb 50kb 50kb 50kb 50kb 50kb 50kb 
50kb 50kb 50kb 50kb 50kb 50kb 50kb 50kb 50kb 50kb 50kb 50kb 50kb 50kb 50kb 50kb 50kb 50kb 50kb 50kb 50kb 50kb 50kb 50kb 50kb 
50kb 50kb 50kb 50kb 50kb 50kb 50kb 50kb 50kb 50kb 50kb 50kb 50kb 50kb 50kb 50kb 50kb 50kb 50kb 50kb 50kb 50kb 50kb 50kb 50kb 

50kb 50kb 50kb 50kb 50kb 50kb 50kb 50kb 50kb 50kb 50kb 50kb 50kb 50kb 50kb 50kb 50kb 50kb 50kb 50kb 50kb 50kb 50kb 50kb 50kb 
50kb 50kb 50kb 50kb 50kb 50kb 50kb 50kb 50kb 50kb 50kb 50kb 50kb 50kb 50kb 50kb 50kb 50kb 50kb 50kb 50kb 50kb 50kb 50kb 50kb 
50kb 50kb 50kb 50kb 50kb 50kb 50kb 50kb 50kb 50kb 50kb 50kb 50kb 50kb 50kb 50kb 50kb 50kb 50kb 50kb 50kb 50kb 50kb 50kb 50kb 
50kb 50kb 50kb 50kb 50kb 50kb 50kb 50kb 50kb 50kb 50kb 50kb 50kb 50kb 50kb 50kb 50kb 50kb 50kb 50kb 50kb 50kb 50kb 50kb 50kb 
50kb 50kb 50kb 50kb 50kb 50kb 50kb 50kb 50kb 50kb 50kb 50kb 50kb 50kb 50kb 50kb 50kb 50kb 50kb 50kb 50kb 50kb 50kb 50kb 50kb 
50kb 50kb 50kb 50kb 50kb 50kb 50kb 50kb 50kb 50kb 50kb 50kb 50kb 50kb 50kb 50kb 50kb 50kb 50kb 50kb 50kb 50kb 50kb 50kb 50kb 
50kb 50kb 50kb 50kb 50kb 50kb 50kb 50kb 50kb 50kb 50kb 50kb 50kb 50kb 50kb 50kb 50kb 50kb 50kb 50kb 50kb 50kb 50kb 50kb 50kb 
50kb 50kb 50kb 50kb 50kb 50kb 50kb 50kb 50kb 50kb 50kb 50kb 50kb 50kb 50kb 50kb 50kb 50kb 50kb 50kb 50kb 50kb 50kb 50kb 50kb 

50kb 50kb 50kb 50kb 50kb 50kb 50kb 50kb 50kb 50kb 50kb 50kb 50kb 50kb 50kb 50kb 50kb 50kb 50kb 50kb 50kb 50kb 50kb 50kb 50kb 
50kb 50kb 50kb 50kb 50kb 50kb 50kb 50kb 50kb 50kb 50kb 50kb 50kb 50kb 50kb 50kb 50kb 50kb 50kb 50kb 50kb 50kb 50kb 50kb 50kb 
50kb 50kb 50kb 50kb 50kb 50kb 50kb 50kb 50kb 50kb 50kb 50kb 50kb 50kb 50kb 50kb 50kb 50kb 50kb 50kb 50kb 50kb 50kb 50kb 50kb 
50kb 50kb 50kb 50kb 50kb 50kb 50kb 50kb 50kb 50kb 50kb 50kb 50kb 50kb 50kb 50kb 50kb 50kb 50kb 50kb 50kb 50kb 50kb 50kb 50kb 
50kb 50kb 50kb 50kb 50kb 50kb 50kb 50kb 50kb 50kb 50kb 50kb 50kb 50kb 50kb 50kb 50kb 50kb 50kb 50kb 50kb 50kb 50kb 50kb 50kb 
50kb 50kb 50kb 50kb 50kb 50kb 50kb 50kb 50kb 50kb 50kb 50kb 50kb 50kb 50kb 50kb 50kb 50kb 50kb 50kb 50kb 50kb 50kb 50kb 50kb 
50kb 50kb 50kb 50kb 50kb 50kb 50kb 50kb 50kb 50kb 50kb 50kb 50kb 50kb 50kb 50kb 50kb 50kb 50kb 50kb 50kb 50kb 50kb 50kb 50kb 
50kb 50kb 50kb 50kb 50kb 50kb 50kb 50kb 50kb 50kb 50kb 50kb 50kb 50kb 50kb 50kb 50kb 50kb 50kb 50kb 50kb 50kb 50kb 50kb 50kb 

50kb 50kb 50kb 50kb 50kb 50kb 50kb 50kb 50kb 50kb 50kb 50kb 50kb 50kb 50kb 50kb 50kb 50kb 50kb 50kb 50kb 50kb 50kb 50kb 50kb 
50kb 50kb 50kb 50kb 50kb 50kb 50kb 50kb 50kb 50kb 50kb 50kb 50kb 50kb 50kb 50kb 50kb 50kb 50kb 50kb 50kb 50kb 50kb 50kb 50kb 
50kb 50kb 50kb 50kb 50kb 50kb 50kb 50kb 50kb 50kb 50kb 50kb 50kb 50kb 50kb 50kb 50kb 50kb 50kb 50kb 50kb 50kb 50kb 50kb 50kb 
50kb 50kb 50kb 50kb 50kb 50kb 50kb 50kb 50kb 50kb 50kb 50kb 50kb 50kb 50kb 50kb 50kb 50kb 50kb 50kb 50kb 50kb 50kb 50kb 50kb 
50kb 50kb 50kb 50kb 50kb 50kb 50kb 50kb 50kb 50kb 50kb 50kb 50kb 50kb 50kb 50kb 50kb 50kb 50kb 50kb 50kb 50kb 50kb 50kb 50kb 
50kb 50kb 50kb 50kb 50kb 50kb 50kb 50kb 50kb 50kb 50kb 50kb 50kb 50kb 50kb 50kb 50kb 50kb 50kb 50kb 50kb 50kb 50kb 50kb 50kb 
50kb 50kb 50kb 50kb 50kb 50kb 50kb 50kb 50kb 50kb 50kb 50kb 50kb 50kb 50kb 50kb 50kb 50kb 50kb 50kb 50kb 50kb 50kb 50kb 50kb 
50kb 50kb 50kb 50kb 50kb 50kb 50kb 50kb 50kb 50kb 50kb 50kb 50kb 50kb 50kb 50kb 50kb 50kb 50kb 50kb 50kb 50kb 50kb 50kb 50kb 

50kb 50kb 50kb 50kb 50kb 50kb 50kb 50kb 50kb 50kb 50kb 50kb 50kb 50kb 50kb 50kb 50kb 50kb 50kb 50kb 50kb 50kb 50kb 50kb 50kb 
50kb 50kb 50kb 50kb 50kb 50kb 50kb 50kb 50kb 50kb 50kb 50kb 50kb 50kb 50kb 50kb 50kb 50kb 50kb 50kb 50kb 50kb 50kb 50kb 50kb 
50kb 50kb 50kb 50kb 50kb 50kb 50kb 50kb 50kb 50kb 50kb 50kb 50kb 50kb 50kb 50kb 50kb 50kb 50kb 50kb 50kb 50kb 50kb 50kb 50kb 
50kb 50kb 50kb 50kb 50kb 50kb 50kb 50kb 50kb 50kb 50kb 50kb 50kb 50kb 50kb 50kb 50kb 50kb 50kb 50kb 50kb 50kb 50kb 50kb 50kb 
50kb 50kb 50kb 50kb 50kb 50kb 50kb 50kb 50kb 50kb 50kb 50kb 50kb 50kb 50kb 50kb 50kb 50kb 50kb 50kb 50kb 50kb 50kb 50kb 50kb 
50kb 50kb 50kb 50kb 50kb 50kb 50kb 50kb 50kb 50kb 50kb 50kb 50kb 50kb 50kb 50kb 50kb 50kb 50kb 50kb 50kb 50kb 50kb 50kb 50kb 
50kb 50kb 50kb 50kb 50kb 50kb 50kb 50kb 50kb 50kb 50kb 50kb 50kb 50kb 50kb 50kb 50kb 50kb 50kb 50kb 50kb 50kb 50kb 50kb 50kb 
50kb 50kb 50kb 50kb 50kb 50kb 50kb 50kb 50kb 50kb 50kb 50kb 50kb 50kb 50kb 50kb 50kb 50kb 50kb 50kb 50kb 50kb 50kb 50kb 50kb 

50kb 50kb 50kb 50kb 50kb 50kb 50kb 50kb 50kb 50kb 50kb 50kb 50kb 50kb 50kb 50kb 50kb 50kb 50kb 50kb 50kb 50kb 50kb 50kb 50kb 
50kb 50kb 50kb 50kb 50kb 50kb 50kb 50kb 50kb 50kb 50kb 50kb 50kb 50kb 50kb 50kb 50kb 50kb 50kb 50kb 50kb 50kb 50kb 50kb 50kb 
50kb 50kb 50kb 50kb 50kb 50kb 50kb 50kb 50kb 50kb 50kb 50kb 50kb 50kb 50kb 50kb 50kb 50kb 50kb 50kb 50kb 50kb 50kb 50kb 50kb 
50kb 50kb 50kb 50kb 50kb 50kb 50kb 50kb 50kb 50kb 50kb 50kb 50kb 50kb 50kb 50kb 50kb 50kb 50kb 50kb 50kb 50kb 50kb 50kb 50kb 
50kb 50kb 50kb 50kb 50kb 50kb 50kb 50kb 50kb 50kb 50kb 50kb 50kb 50kb 50kb 50kb 50kb 50kb 50kb 50kb 50kb 50kb 50kb 50kb 50kb 
50kb 50kb 50kb 50kb 50kb 50kb 50kb 50kb 50kb 50kb 50kb 50kb 50kb 50kb 50kb 50kb 50kb 50kb 50kb 50kb 50kb 50kb 50kb 50kb 50kb 
50kb 50kb 50kb 50kb 50kb 50kb 50kb 50kb 50kb 50kb 50kb 50kb 50kb 50kb 50kb 50kb 50kb 50kb 50kb 50kb 50kb 50kb 50kb 50kb 50kb 
50kb 50kb 50kb 50kb 50kb 50kb 50kb 50kb 50kb 50kb 50kb 50kb 50kb 50kb 50kb 50kb 50kb 50kb 50kb 50kb 50kb 50kb 50kb 50kb 50kb 

50kb 50kb 50kb 50kb 50kb 50kb 50kb 50kb 50kb 50kb 50kb 50kb 50kb 50kb 50kb 50kb 50kb 50kb 50kb 50kb 50kb 50kb 50kb 50kb 50kb 
50kb 50kb 50kb 50kb 50kb 50kb 50kb 50kb 50kb 50kb 50kb 50kb 50kb 50kb 50kb 50kb 50kb 50kb 50kb 50kb 50kb 50kb 50kb 50kb 50kb 
50kb 50kb 50kb 50kb 50kb 50kb 50kb 50kb 50kb 50kb 50kb 50kb 50kb 50kb 50kb 50kb 50kb 50kb 50kb 50kb 50kb 50kb 50kb 50kb 50kb 
50kb 50kb 50kb 50kb 50kb 50kb 50kb 50kb 50kb 50kb 50kb 50kb 50kb 50kb 50kb 50kb 50kb 50kb 50kb 50kb 50kb 50kb 50kb 50kb 50kb 
50kb 50kb 50kb 50kb 50kb 50kb 50kb 50kb 50kb 50kb 50kb 50kb 50kb 50kb 50kb 50kb 50kb 50kb 50kb 50kb 50kb 50kb 50kb 50kb 50kb 
50kb 50kb 50kb 50kb 50kb 50kb 50kb 50kb 50kb 50kb 50kb 50kb 50kb 50kb 50kb 50kb 50kb 50kb 50kb 50kb 50kb 50kb 50kb 50kb 50kb 
50kb 50kb 50kb 50kb 50kb 50kb 50kb 50kb 50kb 50kb 50kb 50kb 50kb 50kb 50kb 50kb 50kb 50kb 50kb 50kb 50kb 50kb 50kb 50kb 50kb 
50kb 50kb 50kb 50kb 50kb 50kb 50kb 50kb 50kb 50kb 50kb 50kb 50kb 50kb 50kb 50kb 50kb 50kb 50kb 50kb 50kb 50kb 50kb 50kb 50kb 

50kb 50kb 50kb 50kb 50kb 50kb 50kb 50kb 50kb 50kb 50kb 50kb 50kb 50kb 50kb 50kb 50kb 50kb 50kb 50kb 50kb 50kb 50kb 50kb 50kb 
50kb 50kb 50kb 50kb 50kb 50kb 50kb 50kb 50kb 50kb 50kb 50kb 50kb 50kb 50kb 50kb 50kb 50kb 50kb 50kb 50kb 50kb 50kb 50kb 50kb 
50kb 50kb 50kb 50kb 50kb 50kb 50kb 50kb 50kb 50kb 50kb 50kb 50kb 50kb 50kb 50kb 50kb 50kb 50kb 50kb 50kb 50kb 50kb 50kb 50kb 
50kb 50kb 50kb 50kb 50kb 50kb 50kb 50kb 50kb 50kb 50kb 50kb 50kb 50kb 50kb 50kb 50kb 50kb 50kb 50kb 50kb 50kb 50kb 50kb 50kb 
50kb 50kb 50kb 50kb 50kb 50kb 50kb 50kb 50kb 50kb 50kb 50kb 50kb 50kb 50kb 50kb 50kb 50kb 50kb 50kb 50kb 50kb 50kb 50kb 50kb 
50kb 50kb 50kb 50kb 50kb 50kb 50kb 50kb 50kb 50kb 50kb 50kb 50kb 50kb 50kb 50kb 50kb 50kb 50kb 50kb 50kb 50kb 50kb 50kb 50kb 
50kb 50kb 50kb 50kb 50kb 50kb 50kb 50kb 50kb 50kb 50kb 50kb 50kb 50kb 50kb 50kb 50kb 50kb 50kb 50kb 50kb 50kb 50kb 50kb 50kb 
50kb 50kb 50kb 50kb 50kb 50kb 50kb 50kb 50kb 50kb 50kb 50kb 50kb 50kb 50kb 50kb 50kb 50kb 50kb 50kb 50kb 50kb 50kb 50kb 50kb 

50kb 50kb 50kb 50kb 50kb 50kb 50kb 50kb 50kb 50kb 50kb 50kb 50kb 50kb 50kb 50kb 50kb 50kb 50kb 50kb 50kb 50kb 50kb 50kb 50kb 
50kb 50kb 50kb 50kb 50kb 50kb 50kb 50kb 50kb 50kb 50kb 50kb 50kb 50kb 50kb 50kb 50kb 50kb 50kb 50kb 50kb 50kb 50kb 50kb 50kb 
50kb 50kb 50kb 50kb 50kb 50kb 50kb 50kb 50kb 50kb 50kb 50kb 50kb 50kb 50kb 50kb 50kb 50kb 50kb 50kb 50kb 50kb 50kb 50kb 50kb 
50kb 50kb 50kb 50kb 50kb 50kb 50kb 50kb 50kb 50kb 50kb 50kb 50kb 50kb 50kb 50kb 50kb 50kb 50kb 50kb 50kb 50kb 50kb 50kb 50kb 
50kb 50kb 50kb 50kb 50kb 50kb 50kb 50kb 50kb 50kb 50kb 50kb 50kb 50kb 50kb 50kb 50kb 50kb 50kb 50kb 50kb 50kb 50kb 50kb 50kb 
50kb 50kb 50kb 50kb 50kb 50kb 50kb 50kb 50kb 50kb 50kb 50kb 50kb 50kb 50kb 50kb 50kb 50kb 50kb 50kb 50kb 50kb 50kb 50kb 50kb 
50kb 50kb 50kb 50kb 50kb 50kb 50kb 50kb 50kb 50kb 50kb 50kb 50kb 50kb 50kb 50kb 50kb 50kb 50kb 50kb 50kb 50kb 50kb 50kb 50kb 
50kb 50kb 50kb 50kb 50kb 50kb 50kb 50kb 50kb 50kb 50kb 50kb 50kb 50kb 50kb 50kb 50kb 50kb 50kb 50kb 50kb 50kb 50kb 50kb 50kb 


50kb 50kb 50kb 50kb 50kb 50kb 50kb 50kb 50kb 50kb 50kb 50kb 50kb 50kb 50kb 50kb 50kb 50kb 50kb 50kb 50kb 50kb 50kb 50kb 50kb 
50kb 50kb 50kb 50kb 50kb 50kb 50kb 50kb 50kb 50kb 50kb 50kb 50kb 50kb 50kb 50kb 50kb 50kb 50kb 50kb 50kb 50kb 50kb 50kb 50kb 
50kb 50kb 50kb 50kb 50kb 50kb 50kb 50kb 50kb 50kb 50kb 50kb 50kb 50kb 50kb 50kb 50kb 50kb 50kb 50kb 50kb 50kb 50kb 50kb 50kb 
50kb 50kb 50kb 50kb 50kb 50kb 50kb 50kb 50kb 50kb 50kb 50kb 50kb 50kb 50kb 50kb 50kb 50kb 50kb 50kb 50kb 50kb 50kb 50kb 50kb 
50kb 50kb 50kb 50kb 50kb 50kb 50kb 50kb 50kb 50kb 50kb 50kb 50kb 50kb 50kb 50kb 50kb 50kb 50kb 50kb 50kb 50kb 50kb 50kb 50kb 
50kb 50kb 50kb 50kb 50kb 50kb 50kb 50kb 50kb 50kb 50kb 50kb 50kb 50kb 50kb 50kb 50kb 50kb 50kb 50kb 50kb 50kb 50kb 50kb 50kb 
50kb 50kb 50kb 50kb 50kb 50kb 50kb 50kb 50kb 50kb 50kb 50kb 50kb 50kb 50kb 50kb 50kb 50kb 50kb 50kb 50kb 50kb 50kb 50kb 50kb 
50kb 50kb 50kb 50kb 50kb 50kb 50kb 50kb 50kb 50kb 50kb 50kb 50kb 50kb 50kb 50kb 50kb 50kb 50kb 50kb 50kb 50kb 50kb 50kb 50kb 

50kb 50kb 50kb 50kb 50kb 50kb 50kb 50kb 50kb 50kb 50kb 50kb 50kb 50kb 50kb 50kb 50kb 50kb 50kb 50kb 50kb 50kb 50kb 50kb 50kb 
50kb 50kb 50kb 50kb 50kb 50kb 50kb 50kb 50kb 50kb 50kb 50kb 50kb 50kb 50kb 50kb 50kb 50kb 50kb 50kb 50kb 50kb 50kb 50kb 50kb 
50kb 50kb 50kb 50kb 50kb 50kb 50kb 50kb 50kb 50kb 50kb 50kb 50kb 50kb 50kb 50kb 50kb 50kb 50kb 50kb 50kb 50kb 50kb 50kb 50kb 
50kb 50kb 50kb 50kb 50kb 50kb 50kb 50kb 50kb 50kb 50kb 50kb 50kb 50kb 50kb 50kb 50kb 50kb 50kb 50kb 50kb 50kb 50kb 50kb 50kb 
50kb 50kb 50kb 50kb 50kb 50kb 50kb 50kb 50kb 50kb 50kb 50kb 50kb 50kb 50kb 50kb 50kb 50kb 50kb 50kb 50kb 50kb 50kb 50kb 50kb 
50kb 50kb 50kb 50kb 50kb 50kb 50kb 50kb 50kb 50kb 50kb 50kb 50kb 50kb 50kb 50kb 50kb 50kb 50kb 50kb 50kb 50kb 50kb 50kb 50kb 
50kb 50kb 50kb 50kb 50kb 50kb 50kb 50kb 50kb 50kb 50kb 50kb 50kb 50kb 50kb 50kb 50kb 50kb 50kb 50kb 50kb 50kb 50kb 50kb 50kb 
50kb 50kb 50kb 50kb 50kb 50kb 50kb 50kb 50kb 50kb 50kb 50kb 50kb 50kb 50kb 50kb 50kb 50kb 50kb 50kb 50kb 50kb 50kb 50kb 50kb 

50kb 50kb 50kb 50kb 50kb 50kb 50kb 50kb 50kb 50kb 50kb 50kb 50kb 50kb 50kb 50kb 50kb 50kb 50kb 50kb 50kb 50kb 50kb 50kb 50kb 
50kb 50kb 50kb 50kb 50kb 50kb 50kb 50kb 50kb 50kb 50kb 50kb 50kb 50kb 50kb 50kb 50kb 50kb 50kb 50kb 50kb 50kb 50kb 50kb 50kb 
50kb 50kb 50kb 50kb 50kb 50kb 50kb 50kb 50kb 50kb 50kb 50kb 50kb 50kb 50kb 50kb 50kb 50kb 50kb 50kb 50kb 50kb 50kb 50kb 50kb 
50kb 50kb 50kb 50kb 50kb 50kb 50kb 50kb 50kb 50kb 50kb 50kb 50kb 50kb 50kb 50kb 50kb 50kb 50kb 50kb 50kb 50kb 50kb 50kb 50kb 
50kb 50kb 50kb 50kb 50kb 50kb 50kb 50kb 50kb 50kb 50kb 50kb 50kb 50kb 50kb 50kb 50kb 50kb 50kb 50kb 50kb 50kb 50kb 50kb 50kb 
50kb 50kb 50kb 50kb 50kb 50kb 50kb 50kb 50kb 50kb 50kb 50kb 50kb 50kb 50kb 50kb 50kb 50kb 50kb 50kb 50kb 50kb 50kb 50kb 50kb 
50kb 50kb 50kb 50kb 50kb 50kb 50kb 50kb 50kb 50kb 50kb 50kb 50kb 50kb 50kb 50kb 50kb 50kb 50kb 50kb 50kb 50kb 50kb 50kb 50kb 
50kb 50kb 50kb 50kb 50kb 50kb 50kb 50kb 50kb 50kb 50kb 50kb 50kb 50kb 50kb 50kb 50kb 50kb 50kb 50kb 50kb 50kb 50kb 50kb 50kb 

50kb 50kb 50kb 50kb 50kb 50kb 50kb 50kb 50kb 50kb 50kb 50kb 50kb 50kb 50kb 50kb 50kb 50kb 50kb 50kb 50kb 50kb 50kb 50kb 50kb 
50kb 50kb 50kb 50kb 50kb 50kb 50kb 50kb 50kb 50kb 50kb 50kb 50kb 50kb 50kb 50kb 50kb 50kb 50kb 50kb 50kb 50kb 50kb 50kb 50kb 
50kb 50kb 50kb 50kb 50kb 50kb 50kb 50kb 50kb 50kb 50kb 50kb 50kb 50kb 50kb 50kb 50kb 50kb 50kb 50kb 50kb 50kb 50kb 50kb 50kb 
50kb 50kb 50kb 50kb 50kb 50kb 50kb 50kb 50kb 50kb 50kb 50kb 50kb 50kb 50kb 50kb 50kb 50kb 50kb 50kb 50kb 50kb 50kb 50kb 50kb 
50kb 50kb 50kb 50kb 50kb 50kb 50kb 50kb 50kb 50kb 50kb 50kb 50kb 50kb 50kb 50kb 50kb 50kb 50kb 50kb 50kb 50kb 50kb 50kb 50kb 
50kb 50kb 50kb 50kb 50kb 50kb 50kb 50kb 50kb 50kb 50kb 50kb 50kb 50kb 50kb 50kb 50kb 50kb 50kb 50kb 50kb 50kb 50kb 50kb 50kb 
50kb 50kb 50kb 50kb 50kb 50kb 50kb 50kb 50kb 50kb 50kb 50kb 50kb 50kb 50kb 50kb 50kb 50kb 50kb 50kb 50kb 50kb 50kb 50kb 50kb 
50kb 50kb 50kb 50kb 50kb 50kb 50kb 50kb 50kb 50kb 50kb 50kb 50kb 50kb 50kb 50kb 50kb 50kb 50kb 50kb 50kb 50kb 50kb 50kb 50kb 

50kb 50kb 50kb 50kb 50kb 50kb 50kb 50kb 50kb 50kb 50kb 50kb 50kb 50kb 50kb 50kb 50kb 50kb 50kb 50kb 50kb 50kb 50kb 50kb 50kb 
50kb 50kb 50kb 50kb 50kb 50kb 50kb 50kb 50kb 50kb 50kb 50kb 50kb 50kb 50kb 50kb 50kb 50kb 50kb 50kb 50kb 50kb 50kb 50kb 50kb 
50kb 50kb 50kb 50kb 50kb 50kb 50kb 50kb 50kb 50kb 50kb 50kb 50kb 50kb 50kb 50kb 50kb 50kb 50kb 50kb 50kb 50kb 50kb 50kb 50kb 
50kb 50kb 50kb 50kb 50kb 50kb 50kb 50kb 50kb 50kb 50kb 50kb 50kb 50kb 50kb 50kb 50kb 50kb 50kb 50kb 50kb 50kb 50kb 50kb 50kb 
50kb 50kb 50kb 50kb 50kb 50kb 50kb 50kb 50kb 50kb 50kb 50kb 50kb 50kb 50kb 50kb 50kb 50kb 50kb 50kb 50kb 50kb 50kb 50kb 50kb 
50kb 50kb 50kb 50kb 50kb 50kb 50kb 50kb 50kb 50kb 50kb 50kb 50kb 50kb 50kb 50kb 50kb 50kb 50kb 50kb 50kb 50kb 50kb 50kb 50kb 
50kb 50kb 50kb 50kb 50kb 50kb 50kb 50kb 50kb 50kb 50kb 50kb 50kb 50kb 50kb 50kb 50kb 50kb 50kb 50kb 50kb 50kb 50kb 50kb 50kb 
50kb 50kb 50kb 50kb 50kb 50kb 50kb 50kb 50kb 50kb 50kb 50kb 50kb 50kb 50kb 50kb 50kb 50kb 50kb 50kb 50kb 50kb 50kb 50kb 50kb 

50kb 50kb 50kb 50kb 50kb 50kb 50kb 50kb 50kb 50kb 50kb 50kb 50kb 50kb 50kb 50kb 50kb 50kb 50kb 50kb 50kb 50kb 50kb 50kb 50kb 
50kb 50kb 50kb 50kb 50kb 50kb 50kb 50kb 50kb 50kb 50kb 50kb 50kb 50kb 50kb 50kb 50kb 50kb 50kb 50kb 50kb 50kb 50kb 50kb 50kb 
50kb 50kb 50kb 50kb 50kb 50kb 50kb 50kb 50kb 50kb 50kb 50kb 50kb 50kb 50kb 50kb 50kb 50kb 50kb 50kb 50kb 50kb 50kb 50kb 50kb 
50kb 50kb 50kb 50kb 50kb 50kb 50kb 50kb 50kb 50kb 50kb 50kb 50kb 50kb 50kb 50kb 50kb 50kb 50kb 50kb 50kb 50kb 50kb 50kb 50kb 
50kb 50kb 50kb 50kb 50kb 50kb 50kb 50kb 50kb 50kb 50kb 50kb 50kb 50kb 50kb 50kb 50kb 50kb 50kb 50kb 50kb 50kb 50kb 50kb 50kb 
50kb 50kb 50kb 50kb 50kb 50kb 50kb 50kb 50kb 50kb 50kb 50kb 50kb 50kb 50kb 50kb 50kb 50kb 50kb 50kb 50kb 50kb 50kb 50kb 50kb 
50kb 50kb 50kb 50kb 50kb 50kb 50kb 50kb 50kb 50kb 50kb 50kb 50kb 50kb 50kb 50kb 50kb 50kb 50kb 50kb 50kb 50kb 50kb 50kb 50kb 
50kb 50kb 50kb 50kb 50kb 50kb 50kb 50kb 50kb 50kb 50kb 50kb 50kb 50kb 50kb 50kb 50kb 50kb 50kb 50kb 50kb 50kb 50kb 50kb 50kb 

50kb 50kb 50kb 50kb 50kb 50kb 50kb 50kb 50kb 50kb 50kb 50kb 50kb 50kb 50kb 50kb 50kb 50kb 50kb 50kb 50kb 50kb 50kb 50kb 50kb 
50kb 50kb 50kb 50kb 50kb 50kb 50kb 50kb 50kb 50kb 50kb 50kb 50kb 50kb 50kb 50kb 50kb 50kb 50kb 50kb 50kb 50kb 50kb 50kb 50kb 
50kb 50kb 50kb 50kb 50kb 50kb 50kb 50kb 50kb 50kb 50kb 50kb 50kb 50kb 50kb 50kb 50kb 50kb 50kb 50kb 50kb 50kb 50kb 50kb 50kb 
50kb 50kb 50kb 50kb 50kb 50kb 50kb 50kb 50kb 50kb 50kb 50kb 50kb 50kb 50kb 50kb 50kb 50kb 50kb 50kb 50kb 50kb 50kb 50kb 50kb 
50kb 50kb 50kb 50kb 50kb 50kb 50kb 50kb 50kb 50kb 50kb 50kb 50kb 50kb 50kb 50kb 50kb 50kb 50kb 50kb 50kb 50kb 50kb 50kb 50kb 
50kb 50kb 50kb 50kb 50kb 50kb 50kb 50kb 50kb 50kb 50kb 50kb 50kb 50kb 50kb 50kb 50kb 50kb 50kb 50kb 50kb 50kb 50kb 50kb 50kb 
50kb 50kb 50kb 50kb 50kb 50kb 50kb 50kb 50kb 50kb 50kb 50kb 50kb 50kb 50kb 50kb 50kb 50kb 50kb 50kb 50kb 50kb 50kb 50kb 50kb 
50kb 50kb 50kb 50kb 50kb 50kb 50kb 50kb 50kb 50kb 50kb 50kb 50kb 50kb 50kb 50kb 50kb 50kb 50kb 50kb 50kb 50kb 50kb 50kb 50kb 

50kb 50kb 50kb 50kb 50kb 50kb 50kb 50kb 50kb 50kb 50kb 50kb 50kb 50kb 50kb 50kb 50kb 50kb 50kb 50kb 50kb 50kb 50kb 50kb 50kb 
50kb 50kb 50kb 50kb 50kb 50kb 50kb 50kb 50kb 50kb 50kb 50kb 50kb 50kb 50kb 50kb 50kb 50kb 50kb 50kb 50kb 50kb 50kb 50kb 50kb 
50kb 50kb 50kb 50kb 50kb 50kb 50kb 50kb 50kb 50kb 50kb 50kb 50kb 50kb 50kb 50kb 50kb 50kb 50kb 50kb 50kb 50kb 50kb 50kb 50kb 
50kb 50kb 50kb 50kb 50kb 50kb 50kb 50kb 50kb 50kb 50kb 50kb 50kb 50kb 50kb 50kb 50kb 50kb 50kb 50kb 50kb 50kb 50kb 50kb 50kb 
50kb 50kb 50kb 50kb 50kb 50kb 50kb 50kb 50kb 50kb 50kb 50kb 50kb 50kb 50kb 50kb 50kb 50kb 50kb 50kb 50kb 50kb 50kb 50kb 50kb 
50kb 50kb 50kb 50kb 50kb 50kb 50kb 50kb 50kb 50kb 50kb 50kb 50kb 50kb 50kb 50kb 50kb 50kb 50kb 50kb 50kb 50kb 50kb 50kb 50kb 
50kb 50kb 50kb 50kb 50kb 50kb 50kb 50kb 50kb 50kb 50kb 50kb 50kb 50kb 50kb 50kb 50kb 50kb 50kb 50kb 50kb 50kb 50kb 50kb 50kb 
50kb 50kb 50kb 50kb 50kb 50kb 50kb 50kb 50kb 50kb 50kb 50kb 50kb 50kb 50kb 50kb 50kb 50kb 50kb 50kb 50kb 50kb 50kb 50kb 50kb 

50kb 50kb 50kb 50kb 50kb 50kb 50kb 50kb 50kb 50kb 50kb 50kb 50kb 50kb 50kb 50kb 50kb 50kb 50kb 50kb 50kb 50kb 50kb 50kb 50kb 
50kb 50kb 50kb 50kb 50kb 50kb 50kb 50kb 50kb 50kb 50kb 50kb 50kb 50kb 50kb 50kb 50kb 50kb 50kb 50kb 50kb 50kb 50kb 50kb 50kb 
50kb 50kb 50kb 50kb 50kb 50kb 50kb 50kb 50kb 50kb 50kb 50kb 50kb 50kb 50kb 50kb 50kb 50kb 50kb 50kb 50kb 50kb 50kb 50kb 50kb 
50kb 50kb 50kb 50kb 50kb 50kb 50kb 50kb 50kb 50kb 50kb 50kb 50kb 50kb 50kb 50kb 50kb 50kb 50kb 50kb 50kb 50kb 50kb 50kb 50kb 
50kb 50kb 50kb 50kb 50kb 50kb 50kb 50kb 50kb 50kb 50kb 50kb 50kb 50kb 50kb 50kb 50kb 50kb 50kb 50kb 50kb 50kb 50kb 50kb 50kb 
50kb 50kb 50kb 50kb 50kb 50kb 50kb 50kb 50kb 50kb 50kb 50kb 50kb 50kb 50kb 50kb 50kb 50kb 50kb 50kb 50kb 50kb 50kb 50kb 50kb 
50kb 50kb 50kb 50kb 50kb 50kb 50kb 50kb 50kb 50kb 50kb 50kb 50kb 50kb 50kb 50kb 50kb 50kb 50kb 50kb 50kb 50kb 50kb 50kb 50kb 
50kb 50kb 50kb 50kb 50kb 50kb 50kb 50kb 50kb 50kb 50kb 50kb 50kb 50kb 50kb 50kb 50kb 50kb 50kb 50kb 50kb 50kb 50kb 50kb 50kb 

50kb 50kb 50kb 50kb 50kb 50kb 50kb 50kb 50kb 50kb 50kb 50kb 50kb 50kb 50kb 50kb 50kb 50kb 50kb 50kb 50kb 50kb 50kb 50kb 50kb 
50kb 50kb 50kb 50kb 50kb 50kb 50kb 50kb 50kb 50kb 50kb 50kb 50kb 50kb 50kb 50kb 50kb 50kb 50kb 50kb 50kb 50kb 50kb 50kb 50kb 
50kb 50kb 50kb 50kb 50kb 50kb 50kb 50kb 50kb 50kb 50kb 50kb 50kb 50kb 50kb 50kb 50kb 50kb 50kb 50kb 50kb 50kb 50kb 50kb 50kb 
50kb 50kb 50kb 50kb 50kb 50kb 50kb 50kb 50kb 50kb 50kb 50kb 50kb 50kb 50kb 50kb 50kb 50kb 50kb 50kb 50kb 50kb 50kb 50kb 50kb 
50kb 50kb 50kb 50kb 50kb 50kb 50kb 50kb 50kb 50kb 50kb 50kb 50kb 50kb 50kb 50kb 50kb 50kb 50kb 50kb 50kb 50kb 50kb 50kb 50kb 
50kb 50kb 50kb 50kb 50kb 50kb 50kb 50kb 50kb 50kb 50kb 50kb 50kb 50kb 50kb 50kb 50kb 50kb 50kb 50kb 50kb 50kb 50kb 50kb 50kb 
50kb 50kb 50kb 50kb 50kb 50kb 50kb 50kb 50kb 50kb 50kb 50kb 50kb 50kb 50kb 50kb 50kb 50kb 50kb 50kb 50kb 50kb 50kb 50kb 50kb 
50kb 50kb 50kb 50kb 50kb 50kb 50kb 50kb 50kb 50kb 50kb 50kb 50kb 50kb 50kb 50kb 50kb 50kb 50kb 50kb 50kb 50kb 50kb 50kb 50kb 


50kb 50kb 50kb 50kb 50kb 50kb 50kb 50kb 50kb 50kb 50kb 50kb 50kb 50kb 50kb 50kb 50kb 50kb 50kb 50kb 50kb 50kb 50kb 50kb 50kb 
50kb 50kb 50kb 50kb 50kb 50kb 50kb 50kb 50kb 50kb 50kb 50kb 50kb 50kb 50kb 50kb 50kb 50kb 50kb 50kb 50kb 50kb 50kb 50kb 50kb 
50kb 50kb 50kb 50kb 50kb 50kb 50kb 50kb 50kb 50kb 50kb 50kb 50kb 50kb 50kb 50kb 50kb 50kb 50kb 50kb 50kb 50kb 50kb 50kb 50kb 
50kb 50kb 50kb 50kb 50kb 50kb 50kb 50kb 50kb 50kb 50kb 50kb 50kb 50kb 50kb 50kb 50kb 50kb 50kb 50kb 50kb 50kb 50kb 50kb 50kb 
50kb 50kb 50kb 50kb 50kb 50kb 50kb 50kb 50kb 50kb 50kb 50kb 50kb 50kb 50kb 50kb 50kb 50kb 50kb 50kb 50kb 50kb 50kb 50kb 50kb 
50kb 50kb 50kb 50kb 50kb 50kb 50kb 50kb 50kb 50kb 50kb 50kb 50kb 50kb 50kb 50kb 50kb 50kb 50kb 50kb 50kb 50kb 50kb 50kb 50kb 
50kb 50kb 50kb 50kb 50kb 50kb 50kb 50kb 50kb 50kb 50kb 50kb 50kb 50kb 50kb 50kb 50kb 50kb 50kb 50kb 50kb 50kb 50kb 50kb 50kb 
50kb 50kb 50kb 50kb 50kb 50kb 50kb 50kb 50kb 50kb 50kb 50kb 50kb 50kb 50kb 50kb 50kb 50kb 50kb 50kb 50kb 50kb 50kb 50kb 50kb 

50kb 50kb 50kb 50kb 50kb 50kb 50kb 50kb 50kb 50kb 50kb 50kb 50kb 50kb 50kb 50kb 50kb 50kb 50kb 50kb 50kb 50kb 50kb 50kb 50kb 
50kb 50kb 50kb 50kb 50kb 50kb 50kb 50kb 50kb 50kb 50kb 50kb 50kb 50kb 50kb 50kb 50kb 50kb 50kb 50kb 50kb 50kb 50kb 50kb 50kb 
50kb 50kb 50kb 50kb 50kb 50kb 50kb 50kb 50kb 50kb 50kb 50kb 50kb 50kb 50kb 50kb 50kb 50kb 50kb 50kb 50kb 50kb 50kb 50kb 50kb 
50kb 50kb 50kb 50kb 50kb 50kb 50kb 50kb 50kb 50kb 50kb 50kb 50kb 50kb 50kb 50kb 50kb 50kb 50kb 50kb 50kb 50kb 50kb 50kb 50kb 
50kb 50kb 50kb 50kb 50kb 50kb 50kb 50kb 50kb 50kb 50kb 50kb 50kb 50kb 50kb 50kb 50kb 50kb 50kb 50kb 50kb 50kb 50kb 50kb 50kb 
50kb 50kb 50kb 50kb 50kb 50kb 50kb 50kb 50kb 50kb 50kb 50kb 50kb 50kb 50kb 50kb 50kb 50kb 50kb 50kb 50kb 50kb 50kb 50kb 50kb 
50kb 50kb 50kb 50kb 50kb 50kb 50kb 50kb 50kb 50kb 50kb 50kb 50kb 50kb 50kb 50kb 50kb 50kb 50kb 50kb 50kb 50kb 50kb 50kb 50kb 
50kb 50kb 50kb 50kb 50kb 50kb 50kb 50kb 50kb 50kb 50kb 50kb 50kb 50kb 50kb 50kb 50kb 50kb 50kb 50kb 50kb 50kb 50kb 50kb 50kb 

50kb 50kb 50kb 50kb 50kb 50kb 50kb 50kb 50kb 50kb 50kb 50kb 50kb 50kb 50kb 50kb 50kb 50kb 50kb 50kb 50kb 50kb 50kb 50kb 50kb 
50kb 50kb 50kb 50kb 50kb 50kb 50kb 50kb 50kb 50kb 50kb 50kb 50kb 50kb 50kb 50kb 50kb 50kb 50kb 50kb 50kb 50kb 50kb 50kb 50kb 
50kb 50kb 50kb 50kb 50kb 50kb 50kb 50kb 50kb 50kb 50kb 50kb 50kb 50kb 50kb 50kb 50kb 50kb 50kb 50kb 50kb 50kb 50kb 50kb 50kb 
50kb 50kb 50kb 50kb 50kb 50kb 50kb 50kb 50kb 50kb 50kb 50kb 50kb 50kb 50kb 50kb 50kb 50kb 50kb 50kb 50kb 50kb 50kb 50kb 50kb 
50kb 50kb 50kb 50kb 50kb 50kb 50kb 50kb 50kb 50kb 50kb 50kb 50kb 50kb 50kb 50kb 50kb 50kb 50kb 50kb 50kb 50kb 50kb 50kb 50kb 
50kb 50kb 50kb 50kb 50kb 50kb 50kb 50kb 50kb 50kb 50kb 50kb 50kb 50kb 50kb 50kb 50kb 50kb 50kb 50kb 50kb 50kb 50kb 50kb 50kb 
50kb 50kb 50kb 50kb 50kb 50kb 50kb 50kb 50kb 50kb 50kb 50kb 50kb 50kb 50kb 50kb 50kb 50kb 50kb 50kb 50kb 50kb 50kb 50kb 50kb 
50kb 50kb 50kb 50kb 50kb 50kb 50kb 50kb 50kb 50kb 50kb 50kb 50kb 50kb 50kb 50kb 50kb 50kb 50kb 50kb 50kb 50kb 50kb 50kb 50kb 

50kb 50kb 50kb 50kb 50kb 50kb 50kb 50kb 50kb 50kb 50kb 50kb 50kb 50kb 50kb 50kb 50kb 50kb 50kb 50kb 50kb 50kb 50kb 50kb 50kb 
50kb 50kb 50kb 50kb 50kb 50kb 50kb 50kb 50kb 50kb 50kb 50kb 50kb 50kb 50kb 50kb 50kb 50kb 50kb 50kb 50kb 50kb 50kb 50kb 50kb 
50kb 50kb 50kb 50kb 50kb 50kb 50kb 50kb 50kb 50kb 50kb 50kb 50kb 50kb 50kb 50kb 50kb 50kb 50kb 50kb 50kb 50kb 50kb 50kb 50kb 
50kb 50kb 50kb 50kb 50kb 50kb 50kb 50kb 50kb 50kb 50kb 50kb 50kb 50kb 50kb 50kb 50kb 50kb 50kb 50kb 50kb 50kb 50kb 50kb 50kb 
50kb 50kb 50kb 50kb 50kb 50kb 50kb 50kb 50kb 50kb 50kb 50kb 50kb 50kb 50kb 50kb 50kb 50kb 50kb 50kb 50kb 50kb 50kb 50kb 50kb 
50kb 50kb 50kb 50kb 50kb 50kb 50kb 50kb 50kb 50kb 50kb 50kb 50kb 50kb 50kb 50kb 50kb 50kb 50kb 50kb 50kb 50kb 50kb 50kb 50kb 
50kb 50kb 50kb 50kb 50kb 50kb 50kb 50kb 50kb 50kb 50kb 50kb 50kb 50kb 50kb 50kb 50kb 50kb 50kb 50kb 50kb 50kb 50kb 50kb 50kb 
50kb 50kb 50kb 50kb 50kb 50kb 50kb 50kb 50kb 50kb 50kb 50kb 50kb 50kb 50kb 50kb 50kb 50kb 50kb 50kb 50kb 50kb 50kb 50kb 50kb 

50kb 50kb 50kb 50kb 50kb 50kb 50kb 50kb 50kb 50kb 50kb 50kb 50kb 50kb 50kb 50kb 50kb 50kb 50kb 50kb 50kb 50kb 50kb 50kb 50kb 
50kb 50kb 50kb 50kb 50kb 50kb 50kb 50kb 50kb 50kb 50kb 50kb 50kb 50kb 50kb 50kb 50kb 50kb 50kb 50kb 50kb 50kb 50kb 50kb 50kb 
50kb 50kb 50kb 50kb 50kb 50kb 50kb 50kb 50kb 50kb 50kb 50kb 50kb 50kb 50kb 50kb 50kb 50kb 50kb 50kb 50kb 50kb 50kb 50kb 50kb 
50kb 50kb 50kb 50kb 50kb 50kb 50kb 50kb 50kb 50kb 50kb 50kb 50kb 50kb 50kb 50kb 50kb 50kb 50kb 50kb 50kb 50kb 50kb 50kb 50kb 
50kb 50kb 50kb 50kb 50kb 50kb 50kb 50kb 50kb 50kb 50kb 50kb 50kb 50kb 50kb 50kb 50kb 50kb 50kb 50kb 50kb 50kb 50kb 50kb 50kb 
50kb 50kb 50kb 50kb 50kb 50kb 50kb 50kb 50kb 50kb 50kb 50kb 50kb 50kb 50kb 50kb 50kb 50kb 50kb 50kb 50kb 50kb 50kb 50kb 50kb 
50kb 50kb 50kb 50kb 50kb 50kb 50kb 50kb 50kb 50kb 50kb 50kb 50kb 50kb 50kb 50kb 50kb 50kb 50kb 50kb 50kb 50kb 50kb 50kb 50kb 
50kb 50kb 50kb 50kb 50kb 50kb 50kb 50kb 50kb 50kb 50kb 50kb 50kb 50kb 50kb 50kb 50kb 50kb 50kb 50kb 50kb 50kb 50kb 50kb 50kb 

50kb 50kb 50kb 50kb 50kb 50kb 50kb 50kb 50kb 50kb 50kb 50kb 50kb 50kb 50kb 50kb 50kb 50kb 50kb 50kb 50kb 50kb 50kb 50kb 50kb 
50kb 50kb 50kb 50kb 50kb 50kb 50kb 50kb 50kb 50kb 50kb 50kb 50kb 50kb 50kb 50kb 50kb 50kb 50kb 50kb 50kb 50kb 50kb 50kb 50kb 
50kb 50kb 50kb 50kb 50kb 50kb 50kb 50kb 50kb 50kb 50kb 50kb 50kb 50kb 50kb 50kb 50kb 50kb 50kb 50kb 50kb 50kb 50kb 50kb 50kb 
50kb 50kb 50kb 50kb 50kb 50kb 50kb 50kb 50kb 50kb 50kb 50kb 50kb 50kb 50kb 50kb 50kb 50kb 50kb 50kb 50kb 50kb 50kb 50kb 50kb 
50kb 50kb 50kb 50kb 50kb 50kb 50kb 50kb 50kb 50kb 50kb 50kb 50kb 50kb 50kb 50kb 50kb 50kb 50kb 50kb 50kb 50kb 50kb 50kb 50kb 
50kb 50kb 50kb 50kb 50kb 50kb 50kb 50kb 50kb 50kb 50kb 50kb 50kb 50kb 50kb 50kb 50kb 50kb 50kb 50kb 50kb 50kb 50kb 50kb 50kb 
50kb 50kb 50kb 50kb 50kb 50kb 50kb 50kb 50kb 50kb 50kb 50kb 50kb 50kb 50kb 50kb 50kb 50kb 50kb 50kb 50kb 50kb 50kb 50kb 50kb 
50kb 50kb 50kb 50kb 50kb 50kb 50kb 50kb 50kb 50kb 50kb 50kb 50kb 50kb 50kb 50kb 50kb 50kb 50kb 50kb 50kb 50kb 50kb 50kb 50kb 

50kb 50kb 50kb 50kb 50kb 50kb 50kb 50kb 50kb 50kb 50kb 50kb 50kb 50kb 50kb 50kb 50kb 50kb 50kb 50kb 50kb 50kb 50kb 50kb 50kb 
50kb 50kb 50kb 50kb 50kb 50kb 50kb 50kb 50kb 50kb 50kb 50kb 50kb 50kb 50kb 50kb 50kb 50kb 50kb 50kb 50kb 50kb 50kb 50kb 50kb 
50kb 50kb 50kb 50kb 50kb 50kb 50kb 50kb 50kb 50kb 50kb 50kb 50kb 50kb 50kb 50kb 50kb 50kb 50kb 50kb 50kb 50kb 50kb 50kb 50kb 
50kb 50kb 50kb 50kb 50kb 50kb 50kb 50kb 50kb 50kb 50kb 50kb 50kb 50kb 50kb 50kb 50kb 50kb 50kb 50kb 50kb 50kb 50kb 50kb 50kb 
50kb 50kb 50kb 50kb 50kb 50kb 50kb 50kb 50kb 50kb 50kb 50kb 50kb 50kb 50kb 50kb 50kb 50kb 50kb 50kb 50kb 50kb 50kb 50kb 50kb 
50kb 50kb 50kb 50kb 50kb 50kb 50kb 50kb 50kb 50kb 50kb 50kb 50kb 50kb 50kb 50kb 50kb 50kb 50kb 50kb 50kb 50kb 50kb 50kb 50kb 
50kb 50kb 50kb 50kb 50kb 50kb 50kb 50kb 50kb 50kb 50kb 50kb 50kb 50kb 50kb 50kb 50kb 50kb 50kb 50kb 50kb 50kb 50kb 50kb 50kb 
50kb 50kb 50kb 50kb 50kb 50kb 50kb 50kb 50kb 50kb 50kb 50kb 50kb 50kb 50kb 50kb 50kb 50kb 50kb 50kb 50kb 50kb 50kb 50kb 50kb 

50kb 50kb 50kb 50kb 50kb 50kb 50kb 50kb 50kb 50kb 50kb 50kb 50kb 50kb 50kb 50kb 50kb 50kb 50kb 50kb 50kb 50kb 50kb 50kb 50kb 
50kb 50kb 50kb 50kb 50kb 50kb 50kb 50kb 50kb 50kb 50kb 50kb 50kb 50kb 50kb 50kb 50kb 50kb 50kb 50kb 50kb 50kb 50kb 50kb 50kb 
50kb 50kb 50kb 50kb 50kb 50kb 50kb 50kb 50kb 50kb 50kb 50kb 50kb 50kb 50kb 50kb 50kb 50kb 50kb 50kb 50kb 50kb 50kb 50kb 50kb 
50kb 50kb 50kb 50kb 50kb 50kb 50kb 50kb 50kb 50kb 50kb 50kb 50kb 50kb 50kb 50kb 50kb 50kb 50kb 50kb 50kb 50kb 50kb 50kb 50kb 
50kb 50kb 50kb 50kb 50kb 50kb 50kb 50kb 50kb 50kb 50kb 50kb 50kb 50kb 50kb 50kb 50kb 50kb 50kb 50kb 50kb 50kb 50kb 50kb 50kb 
50kb 50kb 50kb 50kb 50kb 50kb 50kb 50kb 50kb 50kb 50kb 50kb 50kb 50kb 50kb 50kb 50kb 50kb 50kb 50kb 50kb 50kb 50kb 50kb 50kb 
50kb 50kb 50kb 50kb 50kb 50kb 50kb 50kb 50kb 50kb 50kb 50kb 50kb 50kb 50kb 50kb 50kb 50kb 50kb 50kb 50kb 50kb 50kb 50kb 50kb 
50kb 50kb 50kb 50kb 50kb 50kb 50kb 50kb 50kb 50kb 50kb 50kb 50kb 50kb 50kb 50kb 50kb 50kb 50kb 50kb 50kb 50kb 50kb 50kb 50kb 

50kb 50kb 50kb 50kb 50kb 50kb 50kb 50kb 50kb 50kb 50kb 50kb 50kb 50kb 50kb 50kb 50kb 50kb 50kb 50kb 50kb 50kb 50kb 50kb 50kb 
50kb 50kb 50kb 50kb 50kb 50kb 50kb 50kb 50kb 50kb 50kb 50kb 50kb 50kb 50kb 50kb 50kb 50kb 50kb 50kb 50kb 50kb 50kb 50kb 50kb 
50kb 50kb 50kb 50kb 50kb 50kb 50kb 50kb 50kb 50kb 50kb 50kb 50kb 50kb 50kb 50kb 50kb 50kb 50kb 50kb 50kb 50kb 50kb 50kb 50kb 
50kb 50kb 50kb 50kb 50kb 50kb 50kb 50kb 50kb 50kb 50kb 50kb 50kb 50kb 50kb 50kb 50kb 50kb 50kb 50kb 50kb 50kb 50kb 50kb 50kb 
50kb 50kb 50kb 50kb 50kb 50kb 50kb 50kb 50kb 50kb 50kb 50kb 50kb 50kb 50kb 50kb 50kb 50kb 50kb 50kb 50kb 50kb 50kb 50kb 50kb 
50kb 50kb 50kb 50kb 50kb 50kb 50kb 50kb 50kb 50kb 50kb 50kb 50kb 50kb 50kb 50kb 50kb 50kb 50kb 50kb 50kb 50kb 50kb 50kb 50kb 
50kb 50kb 50kb 50kb 50kb 50kb 50kb 50kb 50kb 50kb 50kb 50kb 50kb 50kb 50kb 50kb 50kb 50kb 50kb 50kb 50kb 50kb 50kb 50kb 50kb 
50kb 50kb 50kb 50kb 50kb 50kb 50kb 50kb 50kb 50kb 50kb 50kb 50kb 50kb 50kb 50kb 50kb 50kb 50kb 50kb 50kb 50kb 50kb 50kb 50kb 

50kb 50kb 50kb 50kb 50kb 50kb 50kb 50kb 50kb 50kb 50kb 50kb 50kb 50kb 50kb 50kb 50kb 50kb 50kb 50kb 50kb 50kb 50kb 50kb 50kb 
50kb 50kb 50kb 50kb 50kb 50kb 50kb 50kb 50kb 50kb 50kb 50kb 50kb 50kb 50kb 50kb 50kb 50kb 50kb 50kb 50kb 50kb 50kb 50kb 50kb 
50kb 50kb 50kb 50kb 50kb 50kb 50kb 50kb 50kb 50kb 50kb 50kb 50kb 50kb 50kb 50kb 50kb 50kb 50kb 50kb 50kb 50kb 50kb 50kb 50kb 
50kb 50kb 50kb 50kb 50kb 50kb 50kb 50kb 50kb 50kb 50kb 50kb 50kb 50kb 50kb 50kb 50kb 50kb 50kb 50kb 50kb 50kb 50kb 50kb 50kb 
50kb 50kb 50kb 50kb 50kb 50kb 50kb 50kb 50kb 50kb 50kb 50kb 50kb 50kb 50kb 50kb 50kb 50kb 50kb 50kb 50kb 50kb 50kb 50kb 50kb 
50kb 50kb 50kb 50kb 50kb 50kb 50kb 50kb 50kb 50kb 50kb 50kb 50kb 50kb 50kb 50kb 50kb 50kb 50kb 50kb 50kb 50kb 50kb 50kb 50kb 
50kb 50kb 50kb 50kb 50kb 50kb 50kb 50kb 50kb 50kb 50kb 50kb 50kb 50kb 50kb 50kb 50kb 50kb 50kb 50kb 50kb 50kb 50kb 50kb 50kb 
50kb 50kb 50kb 50kb 50kb 50kb 50kb 50kb 50kb 50kb 50kb 50kb 50kb 50kb 50kb 50kb 50kb 50kb 50kb 50kb 50kb 50kb 50kb 50kb 50kb 


