total 1344
-rw-r--r--  1 bash  staff  103600 Dec  2 10:43 100kb.txt
-rw-r--r--  1 bash  staff   10091 Dec  2 10:43 10kb.txt
-rw-r--r--  1 bash  staff     124 Dec  2 10:43 1kb.txt
-rw-r--r--  1 bash  staff   25226 Dec  2 10:43 25kb.txt
-rw-r--r--  1 bash  staff   50455 Dec  2 10:43 50kb.txt
-rw-r--r--  1 bash  staff  139464 Dec  2 10:43 base64-100kb.txt
-rw-r--r--  1 bash  staff   67880 Dec  2 10:43 base64-50kb.txt
-rw-r--r--  1 bash  staff   35412 Dec  2 10:43 file1.jpg
-rw-r--r--  1 bash  staff  160915 Dec  2 10:43 file2.pdf
-rw-r--r--@ 1 bash  staff     209 Dec  2 11:56 git-addcommit-time.rb
-rw-r--r--  1 bash  staff     665 Dec  2 11:56 revisionare1.txt
-rw-r--r--  1 bash  staff    1242 Dec  2 11:56 revisionare10.txt
-rw-r--r--  1 bash  staff    1307 Dec  2 11:56 revisionare11.txt
-rw-r--r--  1 bash  staff    1372 Dec  2 11:56 revisionare12.txt
-rw-r--r--  1 bash  staff    1437 Dec  2 11:56 revisionare13.txt
-rw-r--r--  1 bash  staff    1502 Dec  2 11:56 revisionare14.txt
-rw-r--r--  1 bash  staff    1567 Dec  2 11:56 revisionare15.txt
-rw-r--r--  1 bash  staff    1632 Dec  2 11:56 revisionare16.txt
-rw-r--r--  1 bash  staff       0 Dec  2 11:56 revisionare17.txt
-rw-r--r--  1 bash  staff     729 Dec  2 11:56 revisionare2.txt
-rw-r--r--  1 bash  staff     793 Dec  2 11:56 revisionare3.txt
-rw-r--r--  1 bash  staff     857 Dec  2 11:56 revisionare4.txt
-rw-r--r--  1 bash  staff     921 Dec  2 11:56 revisionare5.txt
-rw-r--r--  1 bash  staff     985 Dec  2 11:56 revisionare6.txt
-rw-r--r--  1 bash  staff    1049 Dec  2 11:56 revisionare7.txt
-rw-r--r--  1 bash  staff    1113 Dec  2 11:56 revisionare8.txt
-rw-r--r--  1 bash  staff    1177 Dec  2 11:56 revisionare9.txt
