total 1288
-rw-r--r--   1 bash  staff  103600 Dec  2 10:27 100kb.txt
-rw-r--r--   1 bash  staff   10091 Dec  2 10:27 10kb.txt
-rw-r--r--   1 bash  staff     124 Dec  2 10:27 1kb.txt
-rw-r--r--   1 bash  staff   25226 Dec  2 10:27 25kb.txt
-rw-r--r--   1 bash  staff   50455 Dec  2 10:27 50kb.txt
-rw-r--r--   1 bash  staff  139464 Dec  2 10:27 base64-100kb.txt
-rw-r--r--   1 bash  staff   67880 Dec  2 10:27 base64-50kb.txt
-rw-r--r--   1 bash  staff   35412 Dec  2 10:27 file1.jpg
-rw-r--r--   1 bash  staff  160915 Dec  2 10:27 file2.pdf
drwxr-xr-x  11 bash  staff     374 Dec  2 10:27 folder1
drwxr-xr-x  11 bash  staff     374 Dec  2 10:27 folder2
drwxr-xr-x  11 bash  staff     374 Dec  2 10:27 folder3
drwxr-xr-x  11 bash  staff     374 Dec  2 10:27 folder4
drwxr-xr-x  11 bash  staff     374 Dec  2 10:27 folder5
-rw-r--r--@  1 bash  staff     209 Nov 29 13:06 git-addcommit-time.rb
-rw-r--r--   1 bash  staff     956 Dec  2 10:37 revisionare1.txt
-rw-r--r--   1 bash  staff       0 Dec  2 10:37 revisionare10.txt
-rw-r--r--   1 bash  staff    1021 Dec  2 10:37 revisionare2.txt
-rw-r--r--   1 bash  staff    1086 Dec  2 10:37 revisionare3.txt
-rw-r--r--   1 bash  staff    1151 Dec  2 10:37 revisionare4.txt
-rw-r--r--   1 bash  staff    1216 Dec  2 10:37 revisionare5.txt
-rw-r--r--   1 bash  staff    1281 Dec  2 10:37 revisionare6.txt
-rw-r--r--   1 bash  staff    1346 Dec  2 10:37 revisionare7.txt
-rw-r--r--   1 bash  staff    1411 Dec  2 10:37 revisionare8.txt
-rw-r--r--   1 bash  staff    1476 Dec  2 10:37 revisionare9.txt
