total 1216
-rw-r--r--  1 bash  staff  103600 Dec  4 13:57 100kb.txt
-rw-r--r--  1 bash  staff   10091 Dec  4 13:57 10kb.txt
-rw-r--r--  1 bash  staff     124 Dec  4 13:57 1kb.txt
-rw-r--r--  1 bash  staff   25226 Dec  4 13:57 25kb.txt
-rw-r--r--  1 bash  staff   50455 Dec  4 13:57 50kb.txt
-rw-r--r--  1 bash  staff  139464 Dec  4 13:57 base64-100kb.txt
-rw-r--r--  1 bash  staff   67880 Dec  4 13:57 base64-50kb.txt
-rw-r--r--  1 bash  staff   35412 Dec  4 13:57 file1.jpg
-rw-r--r--  1 bash  staff  160915 Dec  4 13:57 file2.pdf
-rw-r--r--@ 1 bash  staff     208 Nov 29 13:20 one-commit.rb
-rw-r--r--  1 bash  staff       0 Dec  4 13:58 revisionare1.txt
