total 1224
-rw-r--r--  1 bash  staff  103600 Dec  2 12:48 100kb.txt
-rw-r--r--  1 bash  staff   10091 Dec  2 12:48 10kb.txt
-rw-r--r--  1 bash  staff     124 Dec  2 12:48 1kb.txt
-rw-r--r--  1 bash  staff   25226 Dec  2 12:48 25kb.txt
-rw-r--r--  1 bash  staff   50455 Dec  2 12:48 50kb.txt
-rw-r--r--  1 bash  staff  139464 Dec  2 12:48 base64-100kb.txt
-rw-r--r--  1 bash  staff   67880 Dec  2 12:48 base64-50kb.txt
-rw-r--r--  1 bash  staff   35412 Dec  2 12:48 file1.jpg
-rw-r--r--  1 bash  staff  160915 Dec  2 12:48 file2.pdf
-rw-r--r--@ 1 bash  staff     209 Dec  2 14:00 git-addcommit-time.rb
-rw-r--r--  1 bash  staff     665 Dec  2 14:02 revisionare1.txt
-rw-r--r--  1 bash  staff       0 Dec  2 14:02 revisionare2.txt
