total 1360
-rw-r--r--  1 bash  staff  103600 Dec  2 12:48 100kb.txt
-rw-r--r--  1 bash  staff   10091 Dec  2 12:48 10kb.txt
-rw-r--r--  1 bash  staff     124 Dec  2 12:48 1kb.txt
-rw-r--r--  1 bash  staff   25226 Dec  2 12:48 25kb.txt
-rw-r--r--  1 bash  staff   50455 Dec  2 12:48 50kb.txt
-rw-r--r--  1 bash  staff  139464 Dec  2 12:48 base64-100kb.txt
-rw-r--r--  1 bash  staff   67880 Dec  2 12:48 base64-50kb.txt
-rw-r--r--  1 bash  staff   35412 Dec  2 12:48 file1.jpg
-rw-r--r--  1 bash  staff  160915 Dec  2 12:48 file2.pdf
-rw-r--r--@ 1 bash  staff     210 Dec  2 14:02 git-addcommit-time.rb
-rw-r--r--  1 bash  staff     665 Dec  2 14:02 revisionare1.txt
-rw-r--r--  1 bash  staff    1242 Dec  2 14:02 revisionare10.txt
-rw-r--r--  1 bash  staff    1307 Dec  2 14:02 revisionare11.txt
-rw-r--r--  1 bash  staff    1372 Dec  2 14:02 revisionare12.txt
-rw-r--r--  1 bash  staff    1437 Dec  2 14:02 revisionare13.txt
-rw-r--r--  1 bash  staff    1502 Dec  2 14:02 revisionare14.txt
-rw-r--r--  1 bash  staff    1567 Dec  2 14:02 revisionare15.txt
-rw-r--r--  1 bash  staff    1632 Dec  2 14:03 revisionare16.txt
-rw-r--r--  1 bash  staff    1697 Dec  2 14:03 revisionare17.txt
-rw-r--r--  1 bash  staff    1762 Dec  2 14:03 revisionare18.txt
-rw-r--r--  1 bash  staff       0 Dec  2 14:03 revisionare19.txt
-rw-r--r--  1 bash  staff     729 Dec  2 14:02 revisionare2.txt
-rw-r--r--  1 bash  staff     793 Dec  2 14:02 revisionare3.txt
-rw-r--r--  1 bash  staff     857 Dec  2 14:02 revisionare4.txt
-rw-r--r--  1 bash  staff     921 Dec  2 14:02 revisionare5.txt
-rw-r--r--  1 bash  staff     985 Dec  2 14:02 revisionare6.txt
-rw-r--r--  1 bash  staff    1049 Dec  2 14:02 revisionare7.txt
-rw-r--r--  1 bash  staff    1113 Dec  2 14:02 revisionare8.txt
-rw-r--r--  1 bash  staff    1177 Dec  2 14:02 revisionare9.txt
