25kb 25kb 25kb 25kb 25kb 25kb 25kb 25kb 25kb 25kb 25kb 25kb 25kb 25kb 25kb 25kb 25kb 25kb 25kb 25kb 25kb 25kb 25kb 25kb 25kb 
25kb 25kb 25kb 25kb 25kb 25kb 25kb 25kb 25kb 25kb 25kb 25kb 25kb 25kb 25kb 25kb 25kb 25kb 25kb 25kb 25kb 25kb 25kb 25kb 25kb 
25kb 25kb 25kb 25kb 25kb 25kb 25kb 25kb 25kb 25kb 25kb 25kb 25kb 25kb 25kb 25kb 25kb 25kb 25kb 25kb 25kb 25kb 25kb 25kb 25kb 
25kb 25kb 25kb 25kb 25kb 25kb 25kb 25kb 25kb 25kb 25kb 25kb 25kb 25kb 25kb 25kb 25kb 25kb 25kb 25kb 25kb 25kb 25kb 25kb 25kb 
25kb 25kb 25kb 25kb 25kb 25kb 25kb 25kb 25kb 25kb 25kb 25kb 25kb 25kb 25kb 25kb 25kb 25kb 25kb 25kb 25kb 25kb 25kb 25kb 25kb 
25kb 25kb 25kb 25kb 25kb 25kb 25kb 25kb 25kb 25kb 25kb 25kb 25kb 25kb 25kb 25kb 25kb 25kb 25kb 25kb 25kb 25kb 25kb 25kb 25kb 
25kb 25kb 25kb 25kb 25kb 25kb 25kb 25kb 25kb 25kb 25kb 25kb 25kb 25kb 25kb 25kb 25kb 25kb 25kb 25kb 25kb 25kb 25kb 25kb 25kb 
25kb 25kb 25kb 25kb 25kb 25kb 25kb 25kb 25kb 25kb 25kb 25kb 25kb 25kb 25kb 25kb 25kb 25kb 25kb 25kb 25kb 25kb 25kb 25kb 25kb 

25kb 25kb 25kb 25kb 25kb 25kb 25kb 25kb 25kb 25kb 25kb 25kb 25kb 25kb 25kb 25kb 25kb 25kb 25kb 25kb 25kb 25kb 25kb 25kb 25kb 
25kb 25kb 25kb 25kb 25kb 25kb 25kb 25kb 25kb 25kb 25kb 25kb 25kb 25kb 25kb 25kb 25kb 25kb 25kb 25kb 25kb 25kb 25kb 25kb 25kb 
25kb 25kb 25kb 25kb 25kb 25kb 25kb 25kb 25kb 25kb 25kb 25kb 25kb 25kb 25kb 25kb 25kb 25kb 25kb 25kb 25kb 25kb 25kb 25kb 25kb 
25kb 25kb 25kb 25kb 25kb 25kb 25kb 25kb 25kb 25kb 25kb 25kb 25kb 25kb 25kb 25kb 25kb 25kb 25kb 25kb 25kb 25kb 25kb 25kb 25kb 
25kb 25kb 25kb 25kb 25kb 25kb 25kb 25kb 25kb 25kb 25kb 25kb 25kb 25kb 25kb 25kb 25kb 25kb 25kb 25kb 25kb 25kb 25kb 25kb 25kb 
25kb 25kb 25kb 25kb 25kb 25kb 25kb 25kb 25kb 25kb 25kb 25kb 25kb 25kb 25kb 25kb 25kb 25kb 25kb 25kb 25kb 25kb 25kb 25kb 25kb 
25kb 25kb 25kb 25kb 25kb 25kb 25kb 25kb 25kb 25kb 25kb 25kb 25kb 25kb 25kb 25kb 25kb 25kb 25kb 25kb 25kb 25kb 25kb 25kb 25kb 
25kb 25kb 25kb 25kb 25kb 25kb 25kb 25kb 25kb 25kb 25kb 25kb 25kb 25kb 25kb 25kb 25kb 25kb 25kb 25kb 25kb 25kb 25kb 25kb 25kb 

25kb 25kb 25kb 25kb 25kb 25kb 25kb 25kb 25kb 25kb 25kb 25kb 25kb 25kb 25kb 25kb 25kb 25kb 25kb 25kb 25kb 25kb 25kb 25kb 25kb 
25kb 25kb 25kb 25kb 25kb 25kb 25kb 25kb 25kb 25kb 25kb 25kb 25kb 25kb 25kb 25kb 25kb 25kb 25kb 25kb 25kb 25kb 25kb 25kb 25kb 
25kb 25kb 25kb 25kb 25kb 25kb 25kb 25kb 25kb 25kb 25kb 25kb 25kb 25kb 25kb 25kb 25kb 25kb 25kb 25kb 25kb 25kb 25kb 25kb 25kb 
25kb 25kb 25kb 25kb 25kb 25kb 25kb 25kb 25kb 25kb 25kb 25kb 25kb 25kb 25kb 25kb 25kb 25kb 25kb 25kb 25kb 25kb 25kb 25kb 25kb 
25kb 25kb 25kb 25kb 25kb 25kb 25kb 25kb 25kb 25kb 25kb 25kb 25kb 25kb 25kb 25kb 25kb 25kb 25kb 25kb 25kb 25kb 25kb 25kb 25kb 
25kb 25kb 25kb 25kb 25kb 25kb 25kb 25kb 25kb 25kb 25kb 25kb 25kb 25kb 25kb 25kb 25kb 25kb 25kb 25kb 25kb 25kb 25kb 25kb 25kb 
25kb 25kb 25kb 25kb 25kb 25kb 25kb 25kb 25kb 25kb 25kb 25kb 25kb 25kb 25kb 25kb 25kb 25kb 25kb 25kb 25kb 25kb 25kb 25kb 25kb 
25kb 25kb 25kb 25kb 25kb 25kb 25kb 25kb 25kb 25kb 25kb 25kb 25kb 25kb 25kb 25kb 25kb 25kb 25kb 25kb 25kb 25kb 25kb 25kb 25kb 

25kb 25kb 25kb 25kb 25kb 25kb 25kb 25kb 25kb 25kb 25kb 25kb 25kb 25kb 25kb 25kb 25kb 25kb 25kb 25kb 25kb 25kb 25kb 25kb 25kb 
25kb 25kb 25kb 25kb 25kb 25kb 25kb 25kb 25kb 25kb 25kb 25kb 25kb 25kb 25kb 25kb 25kb 25kb 25kb 25kb 25kb 25kb 25kb 25kb 25kb 
25kb 25kb 25kb 25kb 25kb 25kb 25kb 25kb 25kb 25kb 25kb 25kb 25kb 25kb 25kb 25kb 25kb 25kb 25kb 25kb 25kb 25kb 25kb 25kb 25kb 
25kb 25kb 25kb 25kb 25kb 25kb 25kb 25kb 25kb 25kb 25kb 25kb 25kb 25kb 25kb 25kb 25kb 25kb 25kb 25kb 25kb 25kb 25kb 25kb 25kb 
25kb 25kb 25kb 25kb 25kb 25kb 25kb 25kb 25kb 25kb 25kb 25kb 25kb 25kb 25kb 25kb 25kb 25kb 25kb 25kb 25kb 25kb 25kb 25kb 25kb 
25kb 25kb 25kb 25kb 25kb 25kb 25kb 25kb 25kb 25kb 25kb 25kb 25kb 25kb 25kb 25kb 25kb 25kb 25kb 25kb 25kb 25kb 25kb 25kb 25kb 
25kb 25kb 25kb 25kb 25kb 25kb 25kb 25kb 25kb 25kb 25kb 25kb 25kb 25kb 25kb 25kb 25kb 25kb 25kb 25kb 25kb 25kb 25kb 25kb 25kb 
25kb 25kb 25kb 25kb 25kb 25kb 25kb 25kb 25kb 25kb 25kb 25kb 25kb 25kb 25kb 25kb 25kb 25kb 25kb 25kb 25kb 25kb 25kb 25kb 25kb 

25kb 25kb 25kb 25kb 25kb 25kb 25kb 25kb 25kb 25kb 25kb 25kb 25kb 25kb 25kb 25kb 25kb 25kb 25kb 25kb 25kb 25kb 25kb 25kb 25kb 
25kb 25kb 25kb 25kb 25kb 25kb 25kb 25kb 25kb 25kb 25kb 25kb 25kb 25kb 25kb 25kb 25kb 25kb 25kb 25kb 25kb 25kb 25kb 25kb 25kb 
25kb 25kb 25kb 25kb 25kb 25kb 25kb 25kb 25kb 25kb 25kb 25kb 25kb 25kb 25kb 25kb 25kb 25kb 25kb 25kb 25kb 25kb 25kb 25kb 25kb 
25kb 25kb 25kb 25kb 25kb 25kb 25kb 25kb 25kb 25kb 25kb 25kb 25kb 25kb 25kb 25kb 25kb 25kb 25kb 25kb 25kb 25kb 25kb 25kb 25kb 
25kb 25kb 25kb 25kb 25kb 25kb 25kb 25kb 25kb 25kb 25kb 25kb 25kb 25kb 25kb 25kb 25kb 25kb 25kb 25kb 25kb 25kb 25kb 25kb 25kb 
25kb 25kb 25kb 25kb 25kb 25kb 25kb 25kb 25kb 25kb 25kb 25kb 25kb 25kb 25kb 25kb 25kb 25kb 25kb 25kb 25kb 25kb 25kb 25kb 25kb 
25kb 25kb 25kb 25kb 25kb 25kb 25kb 25kb 25kb 25kb 25kb 25kb 25kb 25kb 25kb 25kb 25kb 25kb 25kb 25kb 25kb 25kb 25kb 25kb 25kb 
25kb 25kb 25kb 25kb 25kb 25kb 25kb 25kb 25kb 25kb 25kb 25kb 25kb 25kb 25kb 25kb 25kb 25kb 25kb 25kb 25kb 25kb 25kb 25kb 25kb 

25kb 25kb 25kb 25kb 25kb 25kb 25kb 25kb 25kb 25kb 25kb 25kb 25kb 25kb 25kb 25kb 25kb 25kb 25kb 25kb 25kb 25kb 25kb 25kb 25kb 
25kb 25kb 25kb 25kb 25kb 25kb 25kb 25kb 25kb 25kb 25kb 25kb 25kb 25kb 25kb 25kb 25kb 25kb 25kb 25kb 25kb 25kb 25kb 25kb 25kb 
25kb 25kb 25kb 25kb 25kb 25kb 25kb 25kb 25kb 25kb 25kb 25kb 25kb 25kb 25kb 25kb 25kb 25kb 25kb 25kb 25kb 25kb 25kb 25kb 25kb 
25kb 25kb 25kb 25kb 25kb 25kb 25kb 25kb 25kb 25kb 25kb 25kb 25kb 25kb 25kb 25kb 25kb 25kb 25kb 25kb 25kb 25kb 25kb 25kb 25kb 
25kb 25kb 25kb 25kb 25kb 25kb 25kb 25kb 25kb 25kb 25kb 25kb 25kb 25kb 25kb 25kb 25kb 25kb 25kb 25kb 25kb 25kb 25kb 25kb 25kb 
25kb 25kb 25kb 25kb 25kb 25kb 25kb 25kb 25kb 25kb 25kb 25kb 25kb 25kb 25kb 25kb 25kb 25kb 25kb 25kb 25kb 25kb 25kb 25kb 25kb 
25kb 25kb 25kb 25kb 25kb 25kb 25kb 25kb 25kb 25kb 25kb 25kb 25kb 25kb 25kb 25kb 25kb 25kb 25kb 25kb 25kb 25kb 25kb 25kb 25kb 
25kb 25kb 25kb 25kb 25kb 25kb 25kb 25kb 25kb 25kb 25kb 25kb 25kb 25kb 25kb 25kb 25kb 25kb 25kb 25kb 25kb 25kb 25kb 25kb 25kb 

25kb 25kb 25kb 25kb 25kb 25kb 25kb 25kb 25kb 25kb 25kb 25kb 25kb 25kb 25kb 25kb 25kb 25kb 25kb 25kb 25kb 25kb 25kb 25kb 25kb 
25kb 25kb 25kb 25kb 25kb 25kb 25kb 25kb 25kb 25kb 25kb 25kb 25kb 25kb 25kb 25kb 25kb 25kb 25kb 25kb 25kb 25kb 25kb 25kb 25kb 
25kb 25kb 25kb 25kb 25kb 25kb 25kb 25kb 25kb 25kb 25kb 25kb 25kb 25kb 25kb 25kb 25kb 25kb 25kb 25kb 25kb 25kb 25kb 25kb 25kb 
25kb 25kb 25kb 25kb 25kb 25kb 25kb 25kb 25kb 25kb 25kb 25kb 25kb 25kb 25kb 25kb 25kb 25kb 25kb 25kb 25kb 25kb 25kb 25kb 25kb 
25kb 25kb 25kb 25kb 25kb 25kb 25kb 25kb 25kb 25kb 25kb 25kb 25kb 25kb 25kb 25kb 25kb 25kb 25kb 25kb 25kb 25kb 25kb 25kb 25kb 
25kb 25kb 25kb 25kb 25kb 25kb 25kb 25kb 25kb 25kb 25kb 25kb 25kb 25kb 25kb 25kb 25kb 25kb 25kb 25kb 25kb 25kb 25kb 25kb 25kb 
25kb 25kb 25kb 25kb 25kb 25kb 25kb 25kb 25kb 25kb 25kb 25kb 25kb 25kb 25kb 25kb 25kb 25kb 25kb 25kb 25kb 25kb 25kb 25kb 25kb 
25kb 25kb 25kb 25kb 25kb 25kb 25kb 25kb 25kb 25kb 25kb 25kb 25kb 25kb 25kb 25kb 25kb 25kb 25kb 25kb 25kb 25kb 25kb 25kb 25kb 

25kb 25kb 25kb 25kb 25kb 25kb 25kb 25kb 25kb 25kb 25kb 25kb 25kb 25kb 25kb 25kb 25kb 25kb 25kb 25kb 25kb 25kb 25kb 25kb 25kb 
25kb 25kb 25kb 25kb 25kb 25kb 25kb 25kb 25kb 25kb 25kb 25kb 25kb 25kb 25kb 25kb 25kb 25kb 25kb 25kb 25kb 25kb 25kb 25kb 25kb 
25kb 25kb 25kb 25kb 25kb 25kb 25kb 25kb 25kb 25kb 25kb 25kb 25kb 25kb 25kb 25kb 25kb 25kb 25kb 25kb 25kb 25kb 25kb 25kb 25kb 
25kb 25kb 25kb 25kb 25kb 25kb 25kb 25kb 25kb 25kb 25kb 25kb 25kb 25kb 25kb 25kb 25kb 25kb 25kb 25kb 25kb 25kb 25kb 25kb 25kb 
25kb 25kb 25kb 25kb 25kb 25kb 25kb 25kb 25kb 25kb 25kb 25kb 25kb 25kb 25kb 25kb 25kb 25kb 25kb 25kb 25kb 25kb 25kb 25kb 25kb 
25kb 25kb 25kb 25kb 25kb 25kb 25kb 25kb 25kb 25kb 25kb 25kb 25kb 25kb 25kb 25kb 25kb 25kb 25kb 25kb 25kb 25kb 25kb 25kb 25kb 
25kb 25kb 25kb 25kb 25kb 25kb 25kb 25kb 25kb 25kb 25kb 25kb 25kb 25kb 25kb 25kb 25kb 25kb 25kb 25kb 25kb 25kb 25kb 25kb 25kb 
25kb 25kb 25kb 25kb 25kb 25kb 25kb 25kb 25kb 25kb 25kb 25kb 25kb 25kb 25kb 25kb 25kb 25kb 25kb 25kb 25kb 25kb 25kb 25kb 25kb 

25kb 25kb 25kb 25kb 25kb 25kb 25kb 25kb 25kb 25kb 25kb 25kb 25kb 25kb 25kb 25kb 25kb 25kb 25kb 25kb 25kb 25kb 25kb 25kb 25kb 
25kb 25kb 25kb 25kb 25kb 25kb 25kb 25kb 25kb 25kb 25kb 25kb 25kb 25kb 25kb 25kb 25kb 25kb 25kb 25kb 25kb 25kb 25kb 25kb 25kb 
25kb 25kb 25kb 25kb 25kb 25kb 25kb 25kb 25kb 25kb 25kb 25kb 25kb 25kb 25kb 25kb 25kb 25kb 25kb 25kb 25kb 25kb 25kb 25kb 25kb 
25kb 25kb 25kb 25kb 25kb 25kb 25kb 25kb 25kb 25kb 25kb 25kb 25kb 25kb 25kb 25kb 25kb 25kb 25kb 25kb 25kb 25kb 25kb 25kb 25kb 
25kb 25kb 25kb 25kb 25kb 25kb 25kb 25kb 25kb 25kb 25kb 25kb 25kb 25kb 25kb 25kb 25kb 25kb 25kb 25kb 25kb 25kb 25kb 25kb 25kb 
25kb 25kb 25kb 25kb 25kb 25kb 25kb 25kb 25kb 25kb 25kb 25kb 25kb 25kb 25kb 25kb 25kb 25kb 25kb 25kb 25kb 25kb 25kb 25kb 25kb 
25kb 25kb 25kb 25kb 25kb 25kb 25kb 25kb 25kb 25kb 25kb 25kb 25kb 25kb 25kb 25kb 25kb 25kb 25kb 25kb 25kb 25kb 25kb 25kb 25kb 
25kb 25kb 25kb 25kb 25kb 25kb 25kb 25kb 25kb 25kb 25kb 25kb 25kb 25kb 25kb 25kb 25kb 25kb 25kb 25kb 25kb 25kb 25kb 25kb 25kb 

25kb 25kb 25kb 25kb 25kb 25kb 25kb 25kb 25kb 25kb 25kb 25kb 25kb 25kb 25kb 25kb 25kb 25kb 25kb 25kb 25kb 25kb 25kb 25kb 25kb 
25kb 25kb 25kb 25kb 25kb 25kb 25kb 25kb 25kb 25kb 25kb 25kb 25kb 25kb 25kb 25kb 25kb 25kb 25kb 25kb 25kb 25kb 25kb 25kb 25kb 
25kb 25kb 25kb 25kb 25kb 25kb 25kb 25kb 25kb 25kb 25kb 25kb 25kb 25kb 25kb 25kb 25kb 25kb 25kb 25kb 25kb 25kb 25kb 25kb 25kb 
25kb 25kb 25kb 25kb 25kb 25kb 25kb 25kb 25kb 25kb 25kb 25kb 25kb 25kb 25kb 25kb 25kb 25kb 25kb 25kb 25kb 25kb 25kb 25kb 25kb 
25kb 25kb 25kb 25kb 25kb 25kb 25kb 25kb 25kb 25kb 25kb 25kb 25kb 25kb 25kb 25kb 25kb 25kb 25kb 25kb 25kb 25kb 25kb 25kb 25kb 
25kb 25kb 25kb 25kb 25kb 25kb 25kb 25kb 25kb 25kb 25kb 25kb 25kb 25kb 25kb 25kb 25kb 25kb 25kb 25kb 25kb 25kb 25kb 25kb 25kb 
25kb 25kb 25kb 25kb 25kb 25kb 25kb 25kb 25kb 25kb 25kb 25kb 25kb 25kb 25kb 25kb 25kb 25kb 25kb 25kb 25kb 25kb 25kb 25kb 25kb 
25kb 25kb 25kb 25kb 25kb 25kb 25kb 25kb 25kb 25kb 25kb 25kb 25kb 25kb 25kb 25kb 25kb 25kb 25kb 25kb 25kb 25kb 25kb 25kb 25kb 

25kb 25kb 25kb 25kb 25kb 25kb 25kb 25kb 25kb 25kb 25kb 25kb 25kb 25kb 25kb 25kb 25kb 25kb 25kb 25kb 25kb 25kb 25kb 25kb 25kb 
25kb 25kb 25kb 25kb 25kb 25kb 25kb 25kb 25kb 25kb 25kb 25kb 25kb 25kb 25kb 25kb 25kb 25kb 25kb 25kb 25kb 25kb 25kb 25kb 25kb 
25kb 25kb 25kb 25kb 25kb 25kb 25kb 25kb 25kb 25kb 25kb 25kb 25kb 25kb 25kb 25kb 25kb 25kb 25kb 25kb 25kb 25kb 25kb 25kb 25kb 
25kb 25kb 25kb 25kb 25kb 25kb 25kb 25kb 25kb 25kb 25kb 25kb 25kb 25kb 25kb 25kb 25kb 25kb 25kb 25kb 25kb 25kb 25kb 25kb 25kb 
25kb 25kb 25kb 25kb 25kb 25kb 25kb 25kb 25kb 25kb 25kb 25kb 25kb 25kb 25kb 25kb 25kb 25kb 25kb 25kb 25kb 25kb 25kb 25kb 25kb 
25kb 25kb 25kb 25kb 25kb 25kb 25kb 25kb 25kb 25kb 25kb 25kb 25kb 25kb 25kb 25kb 25kb 25kb 25kb 25kb 25kb 25kb 25kb 25kb 25kb 
25kb 25kb 25kb 25kb 25kb 25kb 25kb 25kb 25kb 25kb 25kb 25kb 25kb 25kb 25kb 25kb 25kb 25kb 25kb 25kb 25kb 25kb 25kb 25kb 25kb 
25kb 25kb 25kb 25kb 25kb 25kb 25kb 25kb 25kb 25kb 25kb 25kb 25kb 25kb 25kb 25kb 25kb 25kb 25kb 25kb 25kb 25kb 25kb 25kb 25kb 

25kb 25kb 25kb 25kb 25kb 25kb 25kb 25kb 25kb 25kb 25kb 25kb 25kb 25kb 25kb 25kb 25kb 25kb 25kb 25kb 25kb 25kb 25kb 25kb 25kb 
25kb 25kb 25kb 25kb 25kb 25kb 25kb 25kb 25kb 25kb 25kb 25kb 25kb 25kb 25kb 25kb 25kb 25kb 25kb 25kb 25kb 25kb 25kb 25kb 25kb 
25kb 25kb 25kb 25kb 25kb 25kb 25kb 25kb 25kb 25kb 25kb 25kb 25kb 25kb 25kb 25kb 25kb 25kb 25kb 25kb 25kb 25kb 25kb 25kb 25kb 
25kb 25kb 25kb 25kb 25kb 25kb 25kb 25kb 25kb 25kb 25kb 25kb 25kb 25kb 25kb 25kb 25kb 25kb 25kb 25kb 25kb 25kb 25kb 25kb 25kb 
25kb 25kb 25kb 25kb 25kb 25kb 25kb 25kb 25kb 25kb 25kb 25kb 25kb 25kb 25kb 25kb 25kb 25kb 25kb 25kb 25kb 25kb 25kb 25kb 25kb 
25kb 25kb 25kb 25kb 25kb 25kb 25kb 25kb 25kb 25kb 25kb 25kb 25kb 25kb 25kb 25kb 25kb 25kb 25kb 25kb 25kb 25kb 25kb 25kb 25kb 
25kb 25kb 25kb 25kb 25kb 25kb 25kb 25kb 25kb 25kb 25kb 25kb 25kb 25kb 25kb 25kb 25kb 25kb 25kb 25kb 25kb 25kb 25kb 25kb 25kb 
25kb 25kb 25kb 25kb 25kb 25kb 25kb 25kb 25kb 25kb 25kb 25kb 25kb 25kb 25kb 25kb 25kb 25kb 25kb 25kb 25kb 25kb 25kb 25kb 25kb 

25kb 25kb 25kb 25kb 25kb 25kb 25kb 25kb 25kb 25kb 25kb 25kb 25kb 25kb 25kb 25kb 25kb 25kb 25kb 25kb 25kb 25kb 25kb 25kb 25kb 
25kb 25kb 25kb 25kb 25kb 25kb 25kb 25kb 25kb 25kb 25kb 25kb 25kb 25kb 25kb 25kb 25kb 25kb 25kb 25kb 25kb 25kb 25kb 25kb 25kb 
25kb 25kb 25kb 25kb 25kb 25kb 25kb 25kb 25kb 25kb 25kb 25kb 25kb 25kb 25kb 25kb 25kb 25kb 25kb 25kb 25kb 25kb 25kb 25kb 25kb 
25kb 25kb 25kb 25kb 25kb 25kb 25kb 25kb 25kb 25kb 25kb 25kb 25kb 25kb 25kb 25kb 25kb 25kb 25kb 25kb 25kb 25kb 25kb 25kb 25kb 
25kb 25kb 25kb 25kb 25kb 25kb 25kb 25kb 25kb 25kb 25kb 25kb 25kb 25kb 25kb 25kb 25kb 25kb 25kb 25kb 25kb 25kb 25kb 25kb 25kb 
25kb 25kb 25kb 25kb 25kb 25kb 25kb 25kb 25kb 25kb 25kb 25kb 25kb 25kb 25kb 25kb 25kb 25kb 25kb 25kb 25kb 25kb 25kb 25kb 25kb 
25kb 25kb 25kb 25kb 25kb 25kb 25kb 25kb 25kb 25kb 25kb 25kb 25kb 25kb 25kb 25kb 25kb 25kb 25kb 25kb 25kb 25kb 25kb 25kb 25kb 
25kb 25kb 25kb 25kb 25kb 25kb 25kb 25kb 25kb 25kb 25kb 25kb 25kb 25kb 25kb 25kb 25kb 25kb 25kb 25kb 25kb 25kb 25kb 25kb 25kb 

25kb 25kb 25kb 25kb 25kb 25kb 25kb 25kb 25kb 25kb 25kb 25kb 25kb 25kb 25kb 25kb 25kb 25kb 25kb 25kb 25kb 25kb 25kb 25kb 25kb 
25kb 25kb 25kb 25kb 25kb 25kb 25kb 25kb 25kb 25kb 25kb 25kb 25kb 25kb 25kb 25kb 25kb 25kb 25kb 25kb 25kb 25kb 25kb 25kb 25kb 
25kb 25kb 25kb 25kb 25kb 25kb 25kb 25kb 25kb 25kb 25kb 25kb 25kb 25kb 25kb 25kb 25kb 25kb 25kb 25kb 25kb 25kb 25kb 25kb 25kb 
25kb 25kb 25kb 25kb 25kb 25kb 25kb 25kb 25kb 25kb 25kb 25kb 25kb 25kb 25kb 25kb 25kb 25kb 25kb 25kb 25kb 25kb 25kb 25kb 25kb 
25kb 25kb 25kb 25kb 25kb 25kb 25kb 25kb 25kb 25kb 25kb 25kb 25kb 25kb 25kb 25kb 25kb 25kb 25kb 25kb 25kb 25kb 25kb 25kb 25kb 
25kb 25kb 25kb 25kb 25kb 25kb 25kb 25kb 25kb 25kb 25kb 25kb 25kb 25kb 25kb 25kb 25kb 25kb 25kb 25kb 25kb 25kb 25kb 25kb 25kb 
25kb 25kb 25kb 25kb 25kb 25kb 25kb 25kb 25kb 25kb 25kb 25kb 25kb 25kb 25kb 25kb 25kb 25kb 25kb 25kb 25kb 25kb 25kb 25kb 25kb 
25kb 25kb 25kb 25kb 25kb 25kb 25kb 25kb 25kb 25kb 25kb 25kb 25kb 25kb 25kb 25kb 25kb 25kb 25kb 25kb 25kb 25kb 25kb 25kb 25kb 

25kb 25kb 25kb 25kb 25kb 25kb 25kb 25kb 25kb 25kb 25kb 25kb 25kb 25kb 25kb 25kb 25kb 25kb 25kb 25kb 25kb 25kb 25kb 25kb 25kb 
25kb 25kb 25kb 25kb 25kb 25kb 25kb 25kb 25kb 25kb 25kb 25kb 25kb 25kb 25kb 25kb 25kb 25kb 25kb 25kb 25kb 25kb 25kb 25kb 25kb 
25kb 25kb 25kb 25kb 25kb 25kb 25kb 25kb 25kb 25kb 25kb 25kb 25kb 25kb 25kb 25kb 25kb 25kb 25kb 25kb 25kb 25kb 25kb 25kb 25kb 
25kb 25kb 25kb 25kb 25kb 25kb 25kb 25kb 25kb 25kb 25kb 25kb 25kb 25kb 25kb 25kb 25kb 25kb 25kb 25kb 25kb 25kb 25kb 25kb 25kb 
25kb 25kb 25kb 25kb 25kb 25kb 25kb 25kb 25kb 25kb 25kb 25kb 25kb 25kb 25kb 25kb 25kb 25kb 25kb 25kb 25kb 25kb 25kb 25kb 25kb 
25kb 25kb 25kb 25kb 25kb 25kb 25kb 25kb 25kb 25kb 25kb 25kb 25kb 25kb 25kb 25kb 25kb 25kb 25kb 25kb 25kb 25kb 25kb 25kb 25kb 
25kb 25kb 25kb 25kb 25kb 25kb 25kb 25kb 25kb 25kb 25kb 25kb 25kb 25kb 25kb 25kb 25kb 25kb 25kb 25kb 25kb 25kb 25kb 25kb 25kb 
25kb 25kb 25kb 25kb 25kb 25kb 25kb 25kb 25kb 25kb 25kb 25kb 25kb 25kb 25kb 25kb 25kb 25kb 25kb 25kb 25kb 25kb 25kb 25kb 25kb 

25kb 25kb 25kb 25kb 25kb 25kb 25kb 25kb 25kb 25kb 25kb 25kb 25kb 25kb 25kb 25kb 25kb 25kb 25kb 25kb 25kb 25kb 25kb 25kb 25kb 
25kb 25kb 25kb 25kb 25kb 25kb 25kb 25kb 25kb 25kb 25kb 25kb 25kb 25kb 25kb 25kb 25kb 25kb 25kb 25kb 25kb 25kb 25kb 25kb 25kb 
25kb 25kb 25kb 25kb 25kb 25kb 25kb 25kb 25kb 25kb 25kb 25kb 25kb 25kb 25kb 25kb 25kb 25kb 25kb 25kb 25kb 25kb 25kb 25kb 25kb 
25kb 25kb 25kb 25kb 25kb 25kb 25kb 25kb 25kb 25kb 25kb 25kb 25kb 25kb 25kb 25kb 25kb 25kb 25kb 25kb 25kb 25kb 25kb 25kb 25kb 
25kb 25kb 25kb 25kb 25kb 25kb 25kb 25kb 25kb 25kb 25kb 25kb 25kb 25kb 25kb 25kb 25kb 25kb 25kb 25kb 25kb 25kb 25kb 25kb 25kb 
25kb 25kb 25kb 25kb 25kb 25kb 25kb 25kb 25kb 25kb 25kb 25kb 25kb 25kb 25kb 25kb 25kb 25kb 25kb 25kb 25kb 25kb 25kb 25kb 25kb 
25kb 25kb 25kb 25kb 25kb 25kb 25kb 25kb 25kb 25kb 25kb 25kb 25kb 25kb 25kb 25kb 25kb 25kb 25kb 25kb 25kb 25kb 25kb 25kb 25kb 
25kb 25kb 25kb 25kb 25kb 25kb 25kb 25kb 25kb 25kb 25kb 25kb 25kb 25kb 25kb 25kb 25kb 25kb 25kb 25kb 25kb 25kb 25kb 25kb 25kb 

25kb 25kb 25kb 25kb 25kb 25kb 25kb 25kb 25kb 25kb 25kb 25kb 25kb 25kb 25kb 25kb 25kb 25kb 25kb 25kb 25kb 25kb 25kb 25kb 25kb 
25kb 25kb 25kb 25kb 25kb 25kb 25kb 25kb 25kb 25kb 25kb 25kb 25kb 25kb 25kb 25kb 25kb 25kb 25kb 25kb 25kb 25kb 25kb 25kb 25kb 
25kb 25kb 25kb 25kb 25kb 25kb 25kb 25kb 25kb 25kb 25kb 25kb 25kb 25kb 25kb 25kb 25kb 25kb 25kb 25kb 25kb 25kb 25kb 25kb 25kb 
25kb 25kb 25kb 25kb 25kb 25kb 25kb 25kb 25kb 25kb 25kb 25kb 25kb 25kb 25kb 25kb 25kb 25kb 25kb 25kb 25kb 25kb 25kb 25kb 25kb 
25kb 25kb 25kb 25kb 25kb 25kb 25kb 25kb 25kb 25kb 25kb 25kb 25kb 25kb 25kb 25kb 25kb 25kb 25kb 25kb 25kb 25kb 25kb 25kb 25kb 
25kb 25kb 25kb 25kb 25kb 25kb 25kb 25kb 25kb 25kb 25kb 25kb 25kb 25kb 25kb 25kb 25kb 25kb 25kb 25kb 25kb 25kb 25kb 25kb 25kb 
25kb 25kb 25kb 25kb 25kb 25kb 25kb 25kb 25kb 25kb 25kb 25kb 25kb 25kb 25kb 25kb 25kb 25kb 25kb 25kb 25kb 25kb 25kb 25kb 25kb 
25kb 25kb 25kb 25kb 25kb 25kb 25kb 25kb 25kb 25kb 25kb 25kb 25kb 25kb 25kb 25kb 25kb 25kb 25kb 25kb 25kb 25kb 25kb 25kb 25kb 

25kb 25kb 25kb 25kb 25kb 25kb 25kb 25kb 25kb 25kb 25kb 25kb 25kb 25kb 25kb 25kb 25kb 25kb 25kb 25kb 25kb 25kb 25kb 25kb 25kb 
25kb 25kb 25kb 25kb 25kb 25kb 25kb 25kb 25kb 25kb 25kb 25kb 25kb 25kb 25kb 25kb 25kb 25kb 25kb 25kb 25kb 25kb 25kb 25kb 25kb 
25kb 25kb 25kb 25kb 25kb 25kb 25kb 25kb 25kb 25kb 25kb 25kb 25kb 25kb 25kb 25kb 25kb 25kb 25kb 25kb 25kb 25kb 25kb 25kb 25kb 
25kb 25kb 25kb 25kb 25kb 25kb 25kb 25kb 25kb 25kb 25kb 25kb 25kb 25kb 25kb 25kb 25kb 25kb 25kb 25kb 25kb 25kb 25kb 25kb 25kb 
25kb 25kb 25kb 25kb 25kb 25kb 25kb 25kb 25kb 25kb 25kb 25kb 25kb 25kb 25kb 25kb 25kb 25kb 25kb 25kb 25kb 25kb 25kb 25kb 25kb 
25kb 25kb 25kb 25kb 25kb 25kb 25kb 25kb 25kb 25kb 25kb 25kb 25kb 25kb 25kb 25kb 25kb 25kb 25kb 25kb 25kb 25kb 25kb 25kb 25kb 
25kb 25kb 25kb 25kb 25kb 25kb 25kb 25kb 25kb 25kb 25kb 25kb 25kb 25kb 25kb 25kb 25kb 25kb 25kb 25kb 25kb 25kb 25kb 25kb 25kb 
25kb 25kb 25kb 25kb 25kb 25kb 25kb 25kb 25kb 25kb 25kb 25kb 25kb 25kb 25kb 25kb 25kb 25kb 25kb 25kb 25kb 25kb 25kb 25kb 25kb 

25kb 25kb 25kb 25kb 25kb 25kb 25kb 25kb 25kb 25kb 25kb 25kb 25kb 25kb 25kb 25kb 25kb 25kb 25kb 25kb 25kb 25kb 25kb 25kb 25kb 
25kb 25kb 25kb 25kb 25kb 25kb 25kb 25kb 25kb 25kb 25kb 25kb 25kb 25kb 25kb 25kb 25kb 25kb 25kb 25kb 25kb 25kb 25kb 25kb 25kb 
25kb 25kb 25kb 25kb 25kb 25kb 25kb 25kb 25kb 25kb 25kb 25kb 25kb 25kb 25kb 25kb 25kb 25kb 25kb 25kb 25kb 25kb 25kb 25kb 25kb 
25kb 25kb 25kb 25kb 25kb 25kb 25kb 25kb 25kb 25kb 25kb 25kb 25kb 25kb 25kb 25kb 25kb 25kb 25kb 25kb 25kb 25kb 25kb 25kb 25kb 
25kb 25kb 25kb 25kb 25kb 25kb 25kb 25kb 25kb 25kb 25kb 25kb 25kb 25kb 25kb 25kb 25kb 25kb 25kb 25kb 25kb 25kb 25kb 25kb 25kb 
25kb 25kb 25kb 25kb 25kb 25kb 25kb 25kb 25kb 25kb 25kb 25kb 25kb 25kb 25kb 25kb 25kb 25kb 25kb 25kb 25kb 25kb 25kb 25kb 25kb 
25kb 25kb 25kb 25kb 25kb 25kb 25kb 25kb 25kb 25kb 25kb 25kb 25kb 25kb 25kb 25kb 25kb 25kb 25kb 25kb 25kb 25kb 25kb 25kb 25kb 
25kb 25kb 25kb 25kb 25kb 25kb 25kb 25kb 25kb 25kb 25kb 25kb 25kb 25kb 25kb 25kb 25kb 25kb 25kb 25kb 25kb 25kb 25kb 25kb 25kb 

25kb 25kb 25kb 25kb 25kb 25kb 25kb 25kb 25kb 25kb 25kb 25kb 25kb 25kb 25kb 25kb 25kb 25kb 25kb 25kb 25kb 25kb 25kb 25kb 25kb 
25kb 25kb 25kb 25kb 25kb 25kb 25kb 25kb 25kb 25kb 25kb 25kb 25kb 25kb 25kb 25kb 25kb 25kb 25kb 25kb 25kb 25kb 25kb 25kb 25kb 
25kb 25kb 25kb 25kb 25kb 25kb 25kb 25kb 25kb 25kb 25kb 25kb 25kb 25kb 25kb 25kb 25kb 25kb 25kb 25kb 25kb 25kb 25kb 25kb 25kb 
25kb 25kb 25kb 25kb 25kb 25kb 25kb 25kb 25kb 25kb 25kb 25kb 25kb 25kb 25kb 25kb 25kb 25kb 25kb 25kb 25kb 25kb 25kb 25kb 25kb 
25kb 25kb 25kb 25kb 25kb 25kb 25kb 25kb 25kb 25kb 25kb 25kb 25kb 25kb 25kb 25kb 25kb 25kb 25kb 25kb 25kb 25kb 25kb 25kb 25kb 
25kb 25kb 25kb 25kb 25kb 25kb 25kb 25kb 25kb 25kb 25kb 25kb 25kb 25kb 25kb 25kb 25kb 25kb 25kb 25kb 25kb 25kb 25kb 25kb 25kb 
25kb 25kb 25kb 25kb 25kb 25kb 25kb 25kb 25kb 25kb 25kb 25kb 25kb 25kb 25kb 25kb 25kb 25kb 25kb 25kb 25kb 25kb 25kb 25kb 25kb 
25kb 25kb 25kb 25kb 25kb 25kb 25kb 25kb 25kb 25kb 25kb 25kb 25kb 25kb 25kb 25kb 25kb 25kb 25kb 25kb 25kb 25kb 25kb 25kb 25kb 

25kb 25kb 25kb 25kb 25kb 25kb 25kb 25kb 25kb 25kb 25kb 25kb 25kb 25kb 25kb 25kb 25kb 25kb 25kb 25kb 25kb 25kb 25kb 25kb 25kb 
25kb 25kb 25kb 25kb 25kb 25kb 25kb 25kb 25kb 25kb 25kb 25kb 25kb 25kb 25kb 25kb 25kb 25kb 25kb 25kb 25kb 25kb 25kb 25kb 25kb 
25kb 25kb 25kb 25kb 25kb 25kb 25kb 25kb 25kb 25kb 25kb 25kb 25kb 25kb 25kb 25kb 25kb 25kb 25kb 25kb 25kb 25kb 25kb 25kb 25kb 
25kb 25kb 25kb 25kb 25kb 25kb 25kb 25kb 25kb 25kb 25kb 25kb 25kb 25kb 25kb 25kb 25kb 25kb 25kb 25kb 25kb 25kb 25kb 25kb 25kb 
25kb 25kb 25kb 25kb 25kb 25kb 25kb 25kb 25kb 25kb 25kb 25kb 25kb 25kb 25kb 25kb 25kb 25kb 25kb 25kb 25kb 25kb 25kb 25kb 25kb 
25kb 25kb 25kb 25kb 25kb 25kb 25kb 25kb 25kb 25kb 25kb 25kb 25kb 25kb 25kb 25kb 25kb 25kb 25kb 25kb 25kb 25kb 25kb 25kb 25kb 
25kb 25kb 25kb 25kb 25kb 25kb 25kb 25kb 25kb 25kb 25kb 25kb 25kb 25kb 25kb 25kb 25kb 25kb 25kb 25kb 25kb 25kb 25kb 25kb 25kb 
25kb 25kb 25kb 25kb 25kb 25kb 25kb 25kb 25kb 25kb 25kb 25kb 25kb 25kb 25kb 25kb 25kb 25kb 25kb 25kb 25kb 25kb 25kb 25kb 25kb 

25kb 25kb 25kb 25kb 25kb 25kb 25kb 25kb 25kb 25kb 25kb 25kb 25kb 25kb 25kb 25kb 25kb 25kb 25kb 25kb 25kb 25kb 25kb 25kb 25kb 
25kb 25kb 25kb 25kb 25kb 25kb 25kb 25kb 25kb 25kb 25kb 25kb 25kb 25kb 25kb 25kb 25kb 25kb 25kb 25kb 25kb 25kb 25kb 25kb 25kb 
25kb 25kb 25kb 25kb 25kb 25kb 25kb 25kb 25kb 25kb 25kb 25kb 25kb 25kb 25kb 25kb 25kb 25kb 25kb 25kb 25kb 25kb 25kb 25kb 25kb 
25kb 25kb 25kb 25kb 25kb 25kb 25kb 25kb 25kb 25kb 25kb 25kb 25kb 25kb 25kb 25kb 25kb 25kb 25kb 25kb 25kb 25kb 25kb 25kb 25kb 
25kb 25kb 25kb 25kb 25kb 25kb 25kb 25kb 25kb 25kb 25kb 25kb 25kb 25kb 25kb 25kb 25kb 25kb 25kb 25kb 25kb 25kb 25kb 25kb 25kb 
25kb 25kb 25kb 25kb 25kb 25kb 25kb 25kb 25kb 25kb 25kb 25kb 25kb 25kb 25kb 25kb 25kb 25kb 25kb 25kb 25kb 25kb 25kb 25kb 25kb 
25kb 25kb 25kb 25kb 25kb 25kb 25kb 25kb 25kb 25kb 25kb 25kb 25kb 25kb 25kb 25kb 25kb 25kb 25kb 25kb 25kb 25kb 25kb 25kb 25kb 
25kb 25kb 25kb 25kb 25kb 25kb 25kb 25kb 25kb 25kb 25kb 25kb 25kb 25kb 25kb 25kb 25kb 25kb 25kb 25kb 25kb 25kb 25kb 25kb 25kb 

25kb 25kb 25kb 25kb 25kb 25kb 25kb 25kb 25kb 25kb 25kb 25kb 25kb 25kb 25kb 25kb 25kb 25kb 25kb 25kb 25kb 25kb 25kb 25kb 25kb 
25kb 25kb 25kb 25kb 25kb 25kb 25kb 25kb 25kb 25kb 25kb 25kb 25kb 25kb 25kb 25kb 25kb 25kb 25kb 25kb 25kb 25kb 25kb 25kb 25kb 
25kb 25kb 25kb 25kb 25kb 25kb 25kb 25kb 25kb 25kb 25kb 25kb 25kb 25kb 25kb 25kb 25kb 25kb 25kb 25kb 25kb 25kb 25kb 25kb 25kb 
25kb 25kb 25kb 25kb 25kb 25kb 25kb 25kb 25kb 25kb 25kb 25kb 25kb 25kb 25kb 25kb 25kb 25kb 25kb 25kb 25kb 25kb 25kb 25kb 25kb 
25kb 25kb 25kb 25kb 25kb 25kb 25kb 25kb 25kb 25kb 25kb 25kb 25kb 25kb 25kb 25kb 25kb 25kb 25kb 25kb 25kb 25kb 25kb 25kb 25kb 
25kb 25kb 25kb 25kb 25kb 25kb 25kb 25kb 25kb 25kb 25kb 25kb 25kb 25kb 25kb 25kb 25kb 25kb 25kb 25kb 25kb 25kb 25kb 25kb 25kb 
25kb 25kb 25kb 25kb 25kb 25kb 25kb 25kb 25kb 25kb 25kb 25kb 25kb 25kb 25kb 25kb 25kb 25kb 25kb 25kb 25kb 25kb 25kb 25kb 25kb 
25kb 25kb 25kb 25kb 25kb 25kb 25kb 25kb 25kb 25kb 25kb 25kb 25kb 25kb 25kb 25kb 25kb 25kb 25kb 25kb 25kb 25kb 25kb 25kb 25kb 

25kb 25kb 25kb 25kb 25kb 25kb 25kb 25kb 25kb 25kb 25kb 25kb 25kb 25kb 25kb 25kb 25kb 25kb 25kb 25kb 25kb 25kb 25kb 25kb 25kb 
25kb 25kb 25kb 25kb 25kb 25kb 25kb 25kb 25kb 25kb 25kb 25kb 25kb 25kb 25kb 25kb 25kb 25kb 25kb 25kb 25kb 25kb 25kb 25kb 25kb 
25kb 25kb 25kb 25kb 25kb 25kb 25kb 25kb 25kb 25kb 25kb 25kb 25kb 25kb 25kb 25kb 25kb 25kb 25kb 25kb 25kb 25kb 25kb 25kb 25kb 
25kb 25kb 25kb 25kb 25kb 25kb 25kb 25kb 25kb 25kb 25kb 25kb 25kb 25kb 25kb 25kb 25kb 25kb 25kb 25kb 25kb 25kb 25kb 25kb 25kb 
25kb 25kb 25kb 25kb 25kb 25kb 25kb 25kb 25kb 25kb 25kb 25kb 25kb 25kb 25kb 25kb 25kb 25kb 25kb 25kb 25kb 25kb 25kb 25kb 25kb 
25kb 25kb 25kb 25kb 25kb 25kb 25kb 25kb 25kb 25kb 25kb 25kb 25kb 25kb 25kb 25kb 25kb 25kb 25kb 25kb 25kb 25kb 25kb 25kb 25kb 
25kb 25kb 25kb 25kb 25kb 25kb 25kb 25kb 25kb 25kb 25kb 25kb 25kb 25kb 25kb 25kb 25kb 25kb 25kb 25kb 25kb 25kb 25kb 25kb 25kb 
25kb 25kb 25kb 25kb 25kb 25kb 25kb 25kb 25kb 25kb 25kb 25kb 25kb 25kb 25kb 25kb 25kb 25kb 25kb 25kb 25kb 25kb 25kb 25kb 25kb 

25kb 25kb 25kb 25kb 25kb 25kb 25kb 25kb 25kb 25kb 25kb 25kb 25kb 25kb 25kb 25kb 25kb 25kb 25kb 25kb 25kb 25kb 25kb 25kb 25kb 
25kb 25kb 25kb 25kb 25kb 25kb 25kb 25kb 25kb 25kb 25kb 25kb 25kb 25kb 25kb 25kb 25kb 25kb 25kb 25kb 25kb 25kb 25kb 25kb 25kb 
25kb 25kb 25kb 25kb 25kb 25kb 25kb 25kb 25kb 25kb 25kb 25kb 25kb 25kb 25kb 25kb 25kb 25kb 25kb 25kb 25kb 25kb 25kb 25kb 25kb 
25kb 25kb 25kb 25kb 25kb 25kb 25kb 25kb 25kb 25kb 25kb 25kb 25kb 25kb 25kb 25kb 25kb 25kb 25kb 25kb 25kb 25kb 25kb 25kb 25kb 
25kb 25kb 25kb 25kb 25kb 25kb 25kb 25kb 25kb 25kb 25kb 25kb 25kb 25kb 25kb 25kb 25kb 25kb 25kb 25kb 25kb 25kb 25kb 25kb 25kb 
25kb 25kb 25kb 25kb 25kb 25kb 25kb 25kb 25kb 25kb 25kb 25kb 25kb 25kb 25kb 25kb 25kb 25kb 25kb 25kb 25kb 25kb 25kb 25kb 25kb 
25kb 25kb 25kb 25kb 25kb 25kb 25kb 25kb 25kb 25kb 25kb 25kb 25kb 25kb 25kb 25kb 25kb 25kb 25kb 25kb 25kb 25kb 25kb 25kb 25kb 
25kb 25kb 25kb 25kb 25kb 25kb 25kb 25kb 25kb 25kb 25kb 25kb 25kb 25kb 25kb 25kb 25kb 25kb 25kb 25kb 25kb 25kb 25kb 25kb 25kb 


