total 1960
-rw-r--r--  1 bash  staff  103600 Dec  2 12:48 100kb.txt
-rw-r--r--  1 bash  staff   10091 Dec  2 12:48 10kb.txt
-rw-r--r--  1 bash  staff     124 Dec  2 12:48 1kb.txt
-rw-r--r--  1 bash  staff   25226 Dec  2 12:48 25kb.txt
-rw-r--r--  1 bash  staff   50455 Dec  2 12:48 50kb.txt
-rw-r--r--  1 bash  staff  139464 Dec  2 12:48 base64-100kb.txt
-rw-r--r--  1 bash  staff   67880 Dec  2 12:48 base64-50kb.txt
-rw-r--r--  1 bash  staff   35412 Dec  2 12:48 file1.jpg
-rw-r--r--  1 bash  staff  160915 Dec  2 12:48 file2.pdf
-rw-r--r--@ 1 bash  staff     210 Dec  2 14:02 git-addcommit-time.rb
-rw-r--r--  1 bash  staff     665 Dec  2 14:02 revisionare1.txt
-rw-r--r--  1 bash  staff    1242 Dec  2 14:02 revisionare10.txt
-rw-r--r--  1 bash  staff    1307 Dec  2 14:02 revisionare11.txt
-rw-r--r--  1 bash  staff    1372 Dec  2 14:02 revisionare12.txt
-rw-r--r--  1 bash  staff    1437 Dec  2 14:02 revisionare13.txt
-rw-r--r--  1 bash  staff    1502 Dec  2 14:02 revisionare14.txt
-rw-r--r--  1 bash  staff    1567 Dec  2 14:02 revisionare15.txt
-rw-r--r--  1 bash  staff    1632 Dec  2 14:02 revisionare16.txt
-rw-r--r--  1 bash  staff    1697 Dec  2 14:02 revisionare17.txt
-rw-r--r--  1 bash  staff    1762 Dec  2 14:02 revisionare18.txt
-rw-r--r--  1 bash  staff    1827 Dec  2 14:02 revisionare19.txt
-rw-r--r--  1 bash  staff     729 Dec  2 14:02 revisionare2.txt
-rw-r--r--  1 bash  staff    1892 Dec  2 14:02 revisionare20.txt
-rw-r--r--  1 bash  staff    1957 Dec  2 14:02 revisionare21.txt
-rw-r--r--  1 bash  staff    2022 Dec  2 14:02 revisionare22.txt
-rw-r--r--  1 bash  staff    2087 Dec  2 14:02 revisionare23.txt
-rw-r--r--  1 bash  staff    2152 Dec  2 14:02 revisionare24.txt
-rw-r--r--  1 bash  staff    2217 Dec  2 14:02 revisionare25.txt
-rw-r--r--  1 bash  staff    2282 Dec  2 14:02 revisionare26.txt
-rw-r--r--  1 bash  staff    2347 Dec  2 14:02 revisionare27.txt
-rw-r--r--  1 bash  staff    2412 Dec  2 14:02 revisionare28.txt
-rw-r--r--  1 bash  staff    2477 Dec  2 14:02 revisionare29.txt
-rw-r--r--  1 bash  staff     793 Dec  2 14:02 revisionare3.txt
-rw-r--r--  1 bash  staff    2542 Dec  2 14:02 revisionare30.txt
-rw-r--r--  1 bash  staff    2607 Dec  2 14:02 revisionare31.txt
-rw-r--r--  1 bash  staff    2672 Dec  2 14:02 revisionare32.txt
-rw-r--r--  1 bash  staff    2737 Dec  2 14:02 revisionare33.txt
-rw-r--r--  1 bash  staff    2802 Dec  2 14:02 revisionare34.txt
-rw-r--r--  1 bash  staff    2867 Dec  2 14:02 revisionare35.txt
-rw-r--r--  1 bash  staff    2932 Dec  2 14:02 revisionare36.txt
-rw-r--r--  1 bash  staff    2997 Dec  2 14:02 revisionare37.txt
-rw-r--r--  1 bash  staff    3062 Dec  2 14:02 revisionare38.txt
-rw-r--r--  1 bash  staff    3127 Dec  2 14:02 revisionare39.txt
-rw-r--r--  1 bash  staff     857 Dec  2 14:02 revisionare4.txt
-rw-r--r--  1 bash  staff    3192 Dec  2 14:02 revisionare40.txt
-rw-r--r--  1 bash  staff    3257 Dec  2 14:02 revisionare41.txt
-rw-r--r--  1 bash  staff    3322 Dec  2 14:02 revisionare42.txt
-rw-r--r--  1 bash  staff    3387 Dec  2 14:02 revisionare43.txt
-rw-r--r--  1 bash  staff    3452 Dec  2 14:02 revisionare44.txt
-rw-r--r--  1 bash  staff    3517 Dec  2 14:02 revisionare45.txt
-rw-r--r--  1 bash  staff    3582 Dec  2 14:02 revisionare46.txt
-rw-r--r--  1 bash  staff    3647 Dec  2 14:02 revisionare47.txt
-rw-r--r--  1 bash  staff    3712 Dec  2 14:02 revisionare48.txt
-rw-r--r--  1 bash  staff    3777 Dec  2 14:02 revisionare49.txt
-rw-r--r--  1 bash  staff     921 Dec  2 14:02 revisionare5.txt
-rw-r--r--  1 bash  staff    3842 Dec  2 14:02 revisionare50.txt
-rw-r--r--  1 bash  staff    3907 Dec  2 14:02 revisionare51.txt
-rw-r--r--  1 bash  staff    3972 Dec  2 14:02 revisionare52.txt
-rw-r--r--  1 bash  staff    4037 Dec  2 14:02 revisionare53.txt
-rw-r--r--  1 bash  staff    4102 Dec  2 14:02 revisionare54.txt
-rw-r--r--  1 bash  staff    4167 Dec  2 14:02 revisionare55.txt
-rw-r--r--  1 bash  staff    4232 Dec  2 14:02 revisionare56.txt
-rw-r--r--  1 bash  staff    4297 Dec  2 14:02 revisionare57.txt
-rw-r--r--  1 bash  staff    4362 Dec  2 14:02 revisionare58.txt
-rw-r--r--  1 bash  staff    4427 Dec  2 14:02 revisionare59.txt
-rw-r--r--  1 bash  staff     985 Dec  2 14:02 revisionare6.txt
-rw-r--r--  1 bash  staff    4492 Dec  2 14:02 revisionare60.txt
-rw-r--r--  1 bash  staff    4557 Dec  2 14:02 revisionare61.txt
-rw-r--r--  1 bash  staff    4622 Dec  2 14:02 revisionare62.txt
-rw-r--r--  1 bash  staff    4687 Dec  2 14:02 revisionare63.txt
-rw-r--r--  1 bash  staff    4752 Dec  2 14:02 revisionare64.txt
-rw-r--r--  1 bash  staff    4817 Dec  2 14:02 revisionare65.txt
-rw-r--r--  1 bash  staff    4882 Dec  2 14:02 revisionare66.txt
-rw-r--r--  1 bash  staff    4947 Dec  2 14:02 revisionare67.txt
-rw-r--r--  1 bash  staff    5012 Dec  2 14:02 revisionare68.txt
-rw-r--r--  1 bash  staff    5077 Dec  2 14:02 revisionare69.txt
-rw-r--r--  1 bash  staff    1049 Dec  2 14:02 revisionare7.txt
-rw-r--r--  1 bash  staff    5142 Dec  2 14:02 revisionare70.txt
-rw-r--r--  1 bash  staff    5207 Dec  2 14:02 revisionare71.txt
-rw-r--r--  1 bash  staff    5272 Dec  2 14:02 revisionare72.txt
-rw-r--r--  1 bash  staff    5337 Dec  2 14:02 revisionare73.txt
-rw-r--r--  1 bash  staff       0 Dec  2 14:02 revisionare74.txt
-rw-r--r--  1 bash  staff    1113 Dec  2 14:02 revisionare8.txt
-rw-r--r--  1 bash  staff    1177 Dec  2 14:02 revisionare9.txt
