total 1888
-rw-r--r--   1 bash  staff  103600 Dec  2 10:44 100kb.txt
-rw-r--r--   1 bash  staff   10091 Dec  2 10:44 10kb.txt
-rw-r--r--   1 bash  staff     124 Dec  2 10:44 1kb.txt
-rw-r--r--   1 bash  staff   25226 Dec  2 10:44 25kb.txt
-rw-r--r--   1 bash  staff   50455 Dec  2 10:44 50kb.txt
-rw-r--r--   1 bash  staff  139464 Dec  2 10:44 base64-100kb.txt
-rw-r--r--   1 bash  staff   67880 Dec  2 10:44 base64-50kb.txt
-rw-r--r--   1 bash  staff   35412 Dec  2 10:44 file1.jpg
-rw-r--r--   1 bash  staff  160915 Dec  2 10:44 file2.pdf
drwxr-xr-x  16 bash  staff     544 Dec  2 10:44 folder1
drwxr-xr-x  26 bash  staff     884 Dec  2 10:44 folder2
drwxr-xr-x  16 bash  staff     544 Dec  2 10:44 folder3
drwxr-xr-x  16 bash  staff     544 Dec  2 10:44 folder4
drwxr-xr-x  16 bash  staff     544 Dec  2 10:44 folder5
-rw-r--r--@  1 bash  staff     210 Dec  2 11:54 git-addcommit-time.rb
-rw-r--r--   1 bash  staff     956 Dec  2 11:54 revisionare1.txt
-rw-r--r--   1 bash  staff    1542 Dec  2 11:54 revisionare10.txt
-rw-r--r--   1 bash  staff    1608 Dec  2 11:54 revisionare11.txt
-rw-r--r--   1 bash  staff    1674 Dec  2 11:54 revisionare12.txt
-rw-r--r--   1 bash  staff    1740 Dec  2 11:54 revisionare13.txt
-rw-r--r--   1 bash  staff    1806 Dec  2 11:54 revisionare14.txt
-rw-r--r--   1 bash  staff    1872 Dec  2 11:54 revisionare15.txt
-rw-r--r--   1 bash  staff    1938 Dec  2 11:54 revisionare16.txt
-rw-r--r--   1 bash  staff    2004 Dec  2 11:54 revisionare17.txt
-rw-r--r--   1 bash  staff    2070 Dec  2 11:54 revisionare18.txt
-rw-r--r--   1 bash  staff    2136 Dec  2 11:54 revisionare19.txt
-rw-r--r--   1 bash  staff    1021 Dec  2 11:54 revisionare2.txt
-rw-r--r--   1 bash  staff    2202 Dec  2 11:54 revisionare20.txt
-rw-r--r--   1 bash  staff    2268 Dec  2 11:54 revisionare21.txt
-rw-r--r--   1 bash  staff    2334 Dec  2 11:54 revisionare22.txt
-rw-r--r--   1 bash  staff    2400 Dec  2 11:54 revisionare23.txt
-rw-r--r--   1 bash  staff    2466 Dec  2 11:54 revisionare24.txt
-rw-r--r--   1 bash  staff    2532 Dec  2 11:54 revisionare25.txt
-rw-r--r--   1 bash  staff    2598 Dec  2 11:54 revisionare26.txt
-rw-r--r--   1 bash  staff    2664 Dec  2 11:54 revisionare27.txt
-rw-r--r--   1 bash  staff    2730 Dec  2 11:54 revisionare28.txt
-rw-r--r--   1 bash  staff    2796 Dec  2 11:54 revisionare29.txt
-rw-r--r--   1 bash  staff    1086 Dec  2 11:54 revisionare3.txt
-rw-r--r--   1 bash  staff    2862 Dec  2 11:54 revisionare30.txt
-rw-r--r--   1 bash  staff    2928 Dec  2 11:54 revisionare31.txt
-rw-r--r--   1 bash  staff    2994 Dec  2 11:54 revisionare32.txt
-rw-r--r--   1 bash  staff    3060 Dec  2 11:54 revisionare33.txt
-rw-r--r--   1 bash  staff    3126 Dec  2 11:54 revisionare34.txt
-rw-r--r--   1 bash  staff    3192 Dec  2 11:54 revisionare35.txt
-rw-r--r--   1 bash  staff    3258 Dec  2 11:54 revisionare36.txt
-rw-r--r--   1 bash  staff    3324 Dec  2 11:54 revisionare37.txt
-rw-r--r--   1 bash  staff    3390 Dec  2 11:54 revisionare38.txt
-rw-r--r--   1 bash  staff    3456 Dec  2 11:54 revisionare39.txt
-rw-r--r--   1 bash  staff    1151 Dec  2 11:54 revisionare4.txt
-rw-r--r--   1 bash  staff    3522 Dec  2 11:54 revisionare40.txt
-rw-r--r--   1 bash  staff    3588 Dec  2 11:54 revisionare41.txt
-rw-r--r--   1 bash  staff    3654 Dec  2 11:54 revisionare42.txt
-rw-r--r--   1 bash  staff    3720 Dec  2 11:54 revisionare43.txt
-rw-r--r--   1 bash  staff    3786 Dec  2 11:54 revisionare44.txt
-rw-r--r--   1 bash  staff    3852 Dec  2 11:54 revisionare45.txt
-rw-r--r--   1 bash  staff    3918 Dec  2 11:54 revisionare46.txt
-rw-r--r--   1 bash  staff    3984 Dec  2 11:54 revisionare47.txt
-rw-r--r--   1 bash  staff    4050 Dec  2 11:54 revisionare48.txt
-rw-r--r--   1 bash  staff    4116 Dec  2 11:54 revisionare49.txt
-rw-r--r--   1 bash  staff    1216 Dec  2 11:54 revisionare5.txt
-rw-r--r--   1 bash  staff    4182 Dec  2 11:54 revisionare50.txt
-rw-r--r--   1 bash  staff    4248 Dec  2 11:54 revisionare51.txt
-rw-r--r--   1 bash  staff    4314 Dec  2 11:54 revisionare52.txt
-rw-r--r--   1 bash  staff    4380 Dec  2 11:54 revisionare53.txt
-rw-r--r--   1 bash  staff    4446 Dec  2 11:54 revisionare54.txt
-rw-r--r--   1 bash  staff    4512 Dec  2 11:54 revisionare55.txt
-rw-r--r--   1 bash  staff    4578 Dec  2 11:54 revisionare56.txt
-rw-r--r--   1 bash  staff    4644 Dec  2 11:54 revisionare57.txt
-rw-r--r--   1 bash  staff    4710 Dec  2 11:54 revisionare58.txt
-rw-r--r--   1 bash  staff    4776 Dec  2 11:54 revisionare59.txt
-rw-r--r--   1 bash  staff    1281 Dec  2 11:54 revisionare6.txt
-rw-r--r--   1 bash  staff    4842 Dec  2 11:54 revisionare60.txt
-rw-r--r--   1 bash  staff    4908 Dec  2 11:54 revisionare61.txt
-rw-r--r--   1 bash  staff    4974 Dec  2 11:54 revisionare62.txt
-rw-r--r--   1 bash  staff    5040 Dec  2 11:54 revisionare63.txt
-rw-r--r--   1 bash  staff    5106 Dec  2 11:54 revisionare64.txt
-rw-r--r--   1 bash  staff    5172 Dec  2 11:54 revisionare65.txt
-rw-r--r--   1 bash  staff    5238 Dec  2 11:54 revisionare66.txt
-rw-r--r--   1 bash  staff       0 Dec  2 11:54 revisionare67.txt
-rw-r--r--   1 bash  staff    1346 Dec  2 11:54 revisionare7.txt
-rw-r--r--   1 bash  staff    1411 Dec  2 11:54 revisionare8.txt
-rw-r--r--   1 bash  staff    1476 Dec  2 11:54 revisionare9.txt
