total 1400
-rw-r--r--   1 bash  staff  103600 Dec  2 10:44 100kb.txt
-rw-r--r--   1 bash  staff   10091 Dec  2 10:44 10kb.txt
-rw-r--r--   1 bash  staff     124 Dec  2 10:44 1kb.txt
-rw-r--r--   1 bash  staff   25226 Dec  2 10:44 25kb.txt
-rw-r--r--   1 bash  staff   50455 Dec  2 10:44 50kb.txt
-rw-r--r--   1 bash  staff  139464 Dec  2 10:44 base64-100kb.txt
-rw-r--r--   1 bash  staff   67880 Dec  2 10:44 base64-50kb.txt
-rw-r--r--   1 bash  staff   35412 Dec  2 10:44 file1.jpg
-rw-r--r--   1 bash  staff  160915 Dec  2 10:44 file2.pdf
drwxr-xr-x  16 bash  staff     544 Dec  2 10:44 folder1
drwxr-xr-x  26 bash  staff     884 Dec  2 10:44 folder2
drwxr-xr-x  16 bash  staff     544 Dec  2 10:44 folder3
drwxr-xr-x  16 bash  staff     544 Dec  2 10:44 folder4
drwxr-xr-x  16 bash  staff     544 Dec  2 10:44 folder5
-rw-r--r--@  1 bash  staff     210 Dec  2 11:54 git-addcommit-time.rb
-rw-r--r--   1 bash  staff     956 Dec  2 11:54 revisionare1.txt
-rw-r--r--   1 bash  staff    1542 Dec  2 11:54 revisionare10.txt
-rw-r--r--   1 bash  staff    1608 Dec  2 11:54 revisionare11.txt
-rw-r--r--   1 bash  staff    1674 Dec  2 11:54 revisionare12.txt
-rw-r--r--   1 bash  staff    1740 Dec  2 11:54 revisionare13.txt
-rw-r--r--   1 bash  staff    1806 Dec  2 11:54 revisionare14.txt
-rw-r--r--   1 bash  staff    1872 Dec  2 11:54 revisionare15.txt
-rw-r--r--   1 bash  staff    1938 Dec  2 11:54 revisionare16.txt
-rw-r--r--   1 bash  staff    2004 Dec  2 11:54 revisionare17.txt
-rw-r--r--   1 bash  staff    2070 Dec  2 11:54 revisionare18.txt
-rw-r--r--   1 bash  staff    2136 Dec  2 11:54 revisionare19.txt
-rw-r--r--   1 bash  staff    1021 Dec  2 11:54 revisionare2.txt
-rw-r--r--   1 bash  staff    2202 Dec  2 11:54 revisionare20.txt
-rw-r--r--   1 bash  staff    2268 Dec  2 11:54 revisionare21.txt
-rw-r--r--   1 bash  staff    2334 Dec  2 11:54 revisionare22.txt
-rw-r--r--   1 bash  staff    2400 Dec  2 11:54 revisionare23.txt
-rw-r--r--   1 bash  staff       0 Dec  2 11:54 revisionare24.txt
-rw-r--r--   1 bash  staff    1086 Dec  2 11:54 revisionare3.txt
-rw-r--r--   1 bash  staff    1151 Dec  2 11:54 revisionare4.txt
-rw-r--r--   1 bash  staff    1216 Dec  2 11:54 revisionare5.txt
-rw-r--r--   1 bash  staff    1281 Dec  2 11:54 revisionare6.txt
-rw-r--r--   1 bash  staff    1346 Dec  2 11:54 revisionare7.txt
-rw-r--r--   1 bash  staff    1411 Dec  2 11:54 revisionare8.txt
-rw-r--r--   1 bash  staff    1476 Dec  2 11:54 revisionare9.txt
