total 1224
-rw-r--r--   1 bash  staff  103600 Dec  2 10:44 100kb.txt
-rw-r--r--   1 bash  staff   10091 Dec  2 10:44 10kb.txt
-rw-r--r--   1 bash  staff     124 Dec  2 10:44 1kb.txt
-rw-r--r--   1 bash  staff   25226 Dec  2 10:44 25kb.txt
-rw-r--r--   1 bash  staff   50455 Dec  2 10:44 50kb.txt
-rw-r--r--   1 bash  staff  139464 Dec  2 10:44 base64-100kb.txt
-rw-r--r--   1 bash  staff   67880 Dec  2 10:44 base64-50kb.txt
-rw-r--r--   1 bash  staff   35412 Dec  2 10:44 file1.jpg
-rw-r--r--   1 bash  staff  160915 Dec  2 10:44 file2.pdf
drwxr-xr-x  16 bash  staff     544 Dec  2 10:44 folder1
drwxr-xr-x  26 bash  staff     884 Dec  2 10:44 folder2
drwxr-xr-x  16 bash  staff     544 Dec  2 10:44 folder3
drwxr-xr-x  16 bash  staff     544 Dec  2 10:44 folder4
drwxr-xr-x  16 bash  staff     544 Dec  2 10:44 folder5
-rw-r--r--@  1 bash  staff     210 Dec  2 11:54 git-addcommit-time.rb
-rw-r--r--   1 bash  staff     956 Dec  2 11:54 revisionare1.txt
-rw-r--r--   1 bash  staff       0 Dec  2 11:54 revisionare2.txt
