10kb 10kb 10kb 10kb 10kb 10kb 10kb 10kb 10kb 10kb 10kb 10kb 10kb 10kb 10kb 10kb 10kb 10kb 10kb 10kb 10kb 10kb 10kb 10kb 10kb 
10kb 10kb 10kb 10kb 10kb 10kb 10kb 10kb 10kb 10kb 10kb 10kb 10kb 10kb 10kb 10kb 10kb 10kb 10kb 10kb 10kb 10kb 10kb 10kb 10kb 
10kb 10kb 10kb 10kb 10kb 10kb 10kb 10kb 10kb 10kb 10kb 10kb 10kb 10kb 10kb 10kb 10kb 10kb 10kb 10kb 10kb 10kb 10kb 10kb 10kb 
10kb 10kb 10kb 10kb 10kb 10kb 10kb 10kb 10kb 10kb 10kb 10kb 10kb 10kb 10kb 10kb 10kb 10kb 10kb 10kb 10kb 10kb 10kb 10kb 10kb 
10kb 10kb 10kb 10kb 10kb 10kb 10kb 10kb 10kb 10kb 10kb 10kb 10kb 10kb 10kb 10kb 10kb 10kb 10kb 10kb 10kb 10kb 10kb 10kb 10kb 
10kb 10kb 10kb 10kb 10kb 10kb 10kb 10kb 10kb 10kb 10kb 10kb 10kb 10kb 10kb 10kb 10kb 10kb 10kb 10kb 10kb 10kb 10kb 10kb 10kb 
10kb 10kb 10kb 10kb 10kb 10kb 10kb 10kb 10kb 10kb 10kb 10kb 10kb 10kb 10kb 10kb 10kb 10kb 10kb 10kb 10kb 10kb 10kb 10kb 10kb 
10kb 10kb 10kb 10kb 10kb 10kb 10kb 10kb 10kb 10kb 10kb 10kb 10kb 10kb 10kb 10kb 10kb 10kb 10kb 10kb 10kb 10kb 10kb 10kb 10kb 

10kb 10kb 10kb 10kb 10kb 10kb 10kb 10kb 10kb 10kb 10kb 10kb 10kb 10kb 10kb 10kb 10kb 10kb 10kb 10kb 10kb 10kb 10kb 10kb 10kb 
10kb 10kb 10kb 10kb 10kb 10kb 10kb 10kb 10kb 10kb 10kb 10kb 10kb 10kb 10kb 10kb 10kb 10kb 10kb 10kb 10kb 10kb 10kb 10kb 10kb 
10kb 10kb 10kb 10kb 10kb 10kb 10kb 10kb 10kb 10kb 10kb 10kb 10kb 10kb 10kb 10kb 10kb 10kb 10kb 10kb 10kb 10kb 10kb 10kb 10kb 
10kb 10kb 10kb 10kb 10kb 10kb 10kb 10kb 10kb 10kb 10kb 10kb 10kb 10kb 10kb 10kb 10kb 10kb 10kb 10kb 10kb 10kb 10kb 10kb 10kb 
10kb 10kb 10kb 10kb 10kb 10kb 10kb 10kb 10kb 10kb 10kb 10kb 10kb 10kb 10kb 10kb 10kb 10kb 10kb 10kb 10kb 10kb 10kb 10kb 10kb 
10kb 10kb 10kb 10kb 10kb 10kb 10kb 10kb 10kb 10kb 10kb 10kb 10kb 10kb 10kb 10kb 10kb 10kb 10kb 10kb 10kb 10kb 10kb 10kb 10kb 
10kb 10kb 10kb 10kb 10kb 10kb 10kb 10kb 10kb 10kb 10kb 10kb 10kb 10kb 10kb 10kb 10kb 10kb 10kb 10kb 10kb 10kb 10kb 10kb 10kb 
10kb 10kb 10kb 10kb 10kb 10kb 10kb 10kb 10kb 10kb 10kb 10kb 10kb 10kb 10kb 10kb 10kb 10kb 10kb 10kb 10kb 10kb 10kb 10kb 10kb 

10kb 10kb 10kb 10kb 10kb 10kb 10kb 10kb 10kb 10kb 10kb 10kb 10kb 10kb 10kb 10kb 10kb 10kb 10kb 10kb 10kb 10kb 10kb 10kb 10kb 
10kb 10kb 10kb 10kb 10kb 10kb 10kb 10kb 10kb 10kb 10kb 10kb 10kb 10kb 10kb 10kb 10kb 10kb 10kb 10kb 10kb 10kb 10kb 10kb 10kb 
10kb 10kb 10kb 10kb 10kb 10kb 10kb 10kb 10kb 10kb 10kb 10kb 10kb 10kb 10kb 10kb 10kb 10kb 10kb 10kb 10kb 10kb 10kb 10kb 10kb 
10kb 10kb 10kb 10kb 10kb 10kb 10kb 10kb 10kb 10kb 10kb 10kb 10kb 10kb 10kb 10kb 10kb 10kb 10kb 10kb 10kb 10kb 10kb 10kb 10kb 
10kb 10kb 10kb 10kb 10kb 10kb 10kb 10kb 10kb 10kb 10kb 10kb 10kb 10kb 10kb 10kb 10kb 10kb 10kb 10kb 10kb 10kb 10kb 10kb 10kb 
10kb 10kb 10kb 10kb 10kb 10kb 10kb 10kb 10kb 10kb 10kb 10kb 10kb 10kb 10kb 10kb 10kb 10kb 10kb 10kb 10kb 10kb 10kb 10kb 10kb 
10kb 10kb 10kb 10kb 10kb 10kb 10kb 10kb 10kb 10kb 10kb 10kb 10kb 10kb 10kb 10kb 10kb 10kb 10kb 10kb 10kb 10kb 10kb 10kb 10kb 
10kb 10kb 10kb 10kb 10kb 10kb 10kb 10kb 10kb 10kb 10kb 10kb 10kb 10kb 10kb 10kb 10kb 10kb 10kb 10kb 10kb 10kb 10kb 10kb 10kb 

10kb 10kb 10kb 10kb 10kb 10kb 10kb 10kb 10kb 10kb 10kb 10kb 10kb 10kb 10kb 10kb 10kb 10kb 10kb 10kb 10kb 10kb 10kb 10kb 10kb 
10kb 10kb 10kb 10kb 10kb 10kb 10kb 10kb 10kb 10kb 10kb 10kb 10kb 10kb 10kb 10kb 10kb 10kb 10kb 10kb 10kb 10kb 10kb 10kb 10kb 
10kb 10kb 10kb 10kb 10kb 10kb 10kb 10kb 10kb 10kb 10kb 10kb 10kb 10kb 10kb 10kb 10kb 10kb 10kb 10kb 10kb 10kb 10kb 10kb 10kb 
10kb 10kb 10kb 10kb 10kb 10kb 10kb 10kb 10kb 10kb 10kb 10kb 10kb 10kb 10kb 10kb 10kb 10kb 10kb 10kb 10kb 10kb 10kb 10kb 10kb 
10kb 10kb 10kb 10kb 10kb 10kb 10kb 10kb 10kb 10kb 10kb 10kb 10kb 10kb 10kb 10kb 10kb 10kb 10kb 10kb 10kb 10kb 10kb 10kb 10kb 
10kb 10kb 10kb 10kb 10kb 10kb 10kb 10kb 10kb 10kb 10kb 10kb 10kb 10kb 10kb 10kb 10kb 10kb 10kb 10kb 10kb 10kb 10kb 10kb 10kb 
10kb 10kb 10kb 10kb 10kb 10kb 10kb 10kb 10kb 10kb 10kb 10kb 10kb 10kb 10kb 10kb 10kb 10kb 10kb 10kb 10kb 10kb 10kb 10kb 10kb 
10kb 10kb 10kb 10kb 10kb 10kb 10kb 10kb 10kb 10kb 10kb 10kb 10kb 10kb 10kb 10kb 10kb 10kb 10kb 10kb 10kb 10kb 10kb 10kb 10kb 

10kb 10kb 10kb 10kb 10kb 10kb 10kb 10kb 10kb 10kb 10kb 10kb 10kb 10kb 10kb 10kb 10kb 10kb 10kb 10kb 10kb 10kb 10kb 10kb 10kb 
10kb 10kb 10kb 10kb 10kb 10kb 10kb 10kb 10kb 10kb 10kb 10kb 10kb 10kb 10kb 10kb 10kb 10kb 10kb 10kb 10kb 10kb 10kb 10kb 10kb 
10kb 10kb 10kb 10kb 10kb 10kb 10kb 10kb 10kb 10kb 10kb 10kb 10kb 10kb 10kb 10kb 10kb 10kb 10kb 10kb 10kb 10kb 10kb 10kb 10kb 
10kb 10kb 10kb 10kb 10kb 10kb 10kb 10kb 10kb 10kb 10kb 10kb 10kb 10kb 10kb 10kb 10kb 10kb 10kb 10kb 10kb 10kb 10kb 10kb 10kb 
10kb 10kb 10kb 10kb 10kb 10kb 10kb 10kb 10kb 10kb 10kb 10kb 10kb 10kb 10kb 10kb 10kb 10kb 10kb 10kb 10kb 10kb 10kb 10kb 10kb 
10kb 10kb 10kb 10kb 10kb 10kb 10kb 10kb 10kb 10kb 10kb 10kb 10kb 10kb 10kb 10kb 10kb 10kb 10kb 10kb 10kb 10kb 10kb 10kb 10kb 
10kb 10kb 10kb 10kb 10kb 10kb 10kb 10kb 10kb 10kb 10kb 10kb 10kb 10kb 10kb 10kb 10kb 10kb 10kb 10kb 10kb 10kb 10kb 10kb 10kb 
10kb 10kb 10kb 10kb 10kb 10kb 10kb 10kb 10kb 10kb 10kb 10kb 10kb 10kb 10kb 10kb 10kb 10kb 10kb 10kb 10kb 10kb 10kb 10kb 10kb 

10kb 10kb 10kb 10kb 10kb 10kb 10kb 10kb 10kb 10kb 10kb 10kb 10kb 10kb 10kb 10kb 10kb 10kb 10kb 10kb 10kb 10kb 10kb 10kb 10kb 
10kb 10kb 10kb 10kb 10kb 10kb 10kb 10kb 10kb 10kb 10kb 10kb 10kb 10kb 10kb 10kb 10kb 10kb 10kb 10kb 10kb 10kb 10kb 10kb 10kb 
10kb 10kb 10kb 10kb 10kb 10kb 10kb 10kb 10kb 10kb 10kb 10kb 10kb 10kb 10kb 10kb 10kb 10kb 10kb 10kb 10kb 10kb 10kb 10kb 10kb 
10kb 10kb 10kb 10kb 10kb 10kb 10kb 10kb 10kb 10kb 10kb 10kb 10kb 10kb 10kb 10kb 10kb 10kb 10kb 10kb 10kb 10kb 10kb 10kb 10kb 
10kb 10kb 10kb 10kb 10kb 10kb 10kb 10kb 10kb 10kb 10kb 10kb 10kb 10kb 10kb 10kb 10kb 10kb 10kb 10kb 10kb 10kb 10kb 10kb 10kb 
10kb 10kb 10kb 10kb 10kb 10kb 10kb 10kb 10kb 10kb 10kb 10kb 10kb 10kb 10kb 10kb 10kb 10kb 10kb 10kb 10kb 10kb 10kb 10kb 10kb 
10kb 10kb 10kb 10kb 10kb 10kb 10kb 10kb 10kb 10kb 10kb 10kb 10kb 10kb 10kb 10kb 10kb 10kb 10kb 10kb 10kb 10kb 10kb 10kb 10kb 
10kb 10kb 10kb 10kb 10kb 10kb 10kb 10kb 10kb 10kb 10kb 10kb 10kb 10kb 10kb 10kb 10kb 10kb 10kb 10kb 10kb 10kb 10kb 10kb 10kb 

10kb 10kb 10kb 10kb 10kb 10kb 10kb 10kb 10kb 10kb 10kb 10kb 10kb 10kb 10kb 10kb 10kb 10kb 10kb 10kb 10kb 10kb 10kb 10kb 10kb 
10kb 10kb 10kb 10kb 10kb 10kb 10kb 10kb 10kb 10kb 10kb 10kb 10kb 10kb 10kb 10kb 10kb 10kb 10kb 10kb 10kb 10kb 10kb 10kb 10kb 
10kb 10kb 10kb 10kb 10kb 10kb 10kb 10kb 10kb 10kb 10kb 10kb 10kb 10kb 10kb 10kb 10kb 10kb 10kb 10kb 10kb 10kb 10kb 10kb 10kb 
10kb 10kb 10kb 10kb 10kb 10kb 10kb 10kb 10kb 10kb 10kb 10kb 10kb 10kb 10kb 10kb 10kb 10kb 10kb 10kb 10kb 10kb 10kb 10kb 10kb 
10kb 10kb 10kb 10kb 10kb 10kb 10kb 10kb 10kb 10kb 10kb 10kb 10kb 10kb 10kb 10kb 10kb 10kb 10kb 10kb 10kb 10kb 10kb 10kb 10kb 
10kb 10kb 10kb 10kb 10kb 10kb 10kb 10kb 10kb 10kb 10kb 10kb 10kb 10kb 10kb 10kb 10kb 10kb 10kb 10kb 10kb 10kb 10kb 10kb 10kb 
10kb 10kb 10kb 10kb 10kb 10kb 10kb 10kb 10kb 10kb 10kb 10kb 10kb 10kb 10kb 10kb 10kb 10kb 10kb 10kb 10kb 10kb 10kb 10kb 10kb 
10kb 10kb 10kb 10kb 10kb 10kb 10kb 10kb 10kb 10kb 10kb 10kb 10kb 10kb 10kb 10kb 10kb 10kb 10kb 10kb 10kb 10kb 10kb 10kb 10kb 

10kb 10kb 10kb 10kb 10kb 10kb 10kb 10kb 10kb 10kb 10kb 10kb 10kb 10kb 10kb 10kb 10kb 10kb 10kb 10kb 10kb 10kb 10kb 10kb 10kb 
10kb 10kb 10kb 10kb 10kb 10kb 10kb 10kb 10kb 10kb 10kb 10kb 10kb 10kb 10kb 10kb 10kb 10kb 10kb 10kb 10kb 10kb 10kb 10kb 10kb 
10kb 10kb 10kb 10kb 10kb 10kb 10kb 10kb 10kb 10kb 10kb 10kb 10kb 10kb 10kb 10kb 10kb 10kb 10kb 10kb 10kb 10kb 10kb 10kb 10kb 
10kb 10kb 10kb 10kb 10kb 10kb 10kb 10kb 10kb 10kb 10kb 10kb 10kb 10kb 10kb 10kb 10kb 10kb 10kb 10kb 10kb 10kb 10kb 10kb 10kb 
10kb 10kb 10kb 10kb 10kb 10kb 10kb 10kb 10kb 10kb 10kb 10kb 10kb 10kb 10kb 10kb 10kb 10kb 10kb 10kb 10kb 10kb 10kb 10kb 10kb 
10kb 10kb 10kb 10kb 10kb 10kb 10kb 10kb 10kb 10kb 10kb 10kb 10kb 10kb 10kb 10kb 10kb 10kb 10kb 10kb 10kb 10kb 10kb 10kb 10kb 
10kb 10kb 10kb 10kb 10kb 10kb 10kb 10kb 10kb 10kb 10kb 10kb 10kb 10kb 10kb 10kb 10kb 10kb 10kb 10kb 10kb 10kb 10kb 10kb 10kb 
10kb 10kb 10kb 10kb 10kb 10kb 10kb 10kb 10kb 10kb 10kb 10kb 10kb 10kb 10kb 10kb 10kb 10kb 10kb 10kb 10kb 10kb 10kb 10kb 10kb 

10kb 10kb 10kb 10kb 10kb 10kb 10kb 10kb 10kb 10kb 10kb 10kb 10kb 10kb 10kb 10kb 10kb 10kb 10kb 10kb 10kb 10kb 10kb 10kb 10kb 
10kb 10kb 10kb 10kb 10kb 10kb 10kb 10kb 10kb 10kb 10kb 10kb 10kb 10kb 10kb 10kb 10kb 10kb 10kb 10kb 10kb 10kb 10kb 10kb 10kb 
10kb 10kb 10kb 10kb 10kb 10kb 10kb 10kb 10kb 10kb 10kb 10kb 10kb 10kb 10kb 10kb 10kb 10kb 10kb 10kb 10kb 10kb 10kb 10kb 10kb 
10kb 10kb 10kb 10kb 10kb 10kb 10kb 10kb 10kb 10kb 10kb 10kb 10kb 10kb 10kb 10kb 10kb 10kb 10kb 10kb 10kb 10kb 10kb 10kb 10kb 
10kb 10kb 10kb 10kb 10kb 10kb 10kb 10kb 10kb 10kb 10kb 10kb 10kb 10kb 10kb 10kb 10kb 10kb 10kb 10kb 10kb 10kb 10kb 10kb 10kb 
10kb 10kb 10kb 10kb 10kb 10kb 10kb 10kb 10kb 10kb 10kb 10kb 10kb 10kb 10kb 10kb 10kb 10kb 10kb 10kb 10kb 10kb 10kb 10kb 10kb 
10kb 10kb 10kb 10kb 10kb 10kb 10kb 10kb 10kb 10kb 10kb 10kb 10kb 10kb 10kb 10kb 10kb 10kb 10kb 10kb 10kb 10kb 10kb 10kb 10kb 
10kb 10kb 10kb 10kb 10kb 10kb 10kb 10kb 10kb 10kb 10kb 10kb 10kb 10kb 10kb 10kb 10kb 10kb 10kb 10kb 10kb 10kb 10kb 10kb 10kb 

10kb 10kb 10kb 10kb 10kb 10kb 10kb 10kb 10kb 10kb 10kb 10kb 10kb 10kb 10kb 10kb 10kb 10kb 10kb 10kb 10kb 10kb 10kb 10kb 10kb 
10kb 10kb 10kb 10kb 10kb 10kb 10kb 10kb 10kb 10kb 10kb 10kb 10kb 10kb 10kb 10kb 10kb 10kb 10kb 10kb 10kb 10kb 10kb 10kb 10kb 
10kb 10kb 10kb 10kb 10kb 10kb 10kb 10kb 10kb 10kb 10kb 10kb 10kb 10kb 10kb 10kb 10kb 10kb 10kb 10kb 10kb 10kb 10kb 10kb 10kb 
10kb 10kb 10kb 10kb 10kb 10kb 10kb 10kb 10kb 10kb 10kb 10kb 10kb 10kb 10kb 10kb 10kb 10kb 10kb 10kb 10kb 10kb 10kb 10kb 10kb 
10kb 10kb 10kb 10kb 10kb 10kb 10kb 10kb 10kb 10kb 10kb 10kb 10kb 10kb 10kb 10kb 10kb 10kb 10kb 10kb 10kb 10kb 10kb 10kb 10kb 
10kb 10kb 10kb 10kb 10kb 10kb 10kb 10kb 10kb 10kb 10kb 10kb 10kb 10kb 10kb 10kb 10kb 10kb 10kb 10kb 10kb 10kb 10kb 10kb 10kb 
10kb 10kb 10kb 10kb 10kb 10kb 10kb 10kb 10kb 10kb 10kb 10kb 10kb 10kb 10kb 10kb 10kb 10kb 10kb 10kb 10kb 10kb 10kb 10kb 10kb 
10kb 10kb 10kb 10kb 10kb 10kb 10kb 10kb 10kb 10kb 10kb 10kb 10kb 10kb 10kb 10kb 10kb 10kb 10kb 10kb 10kb 10kb 10kb 10kb 10kb 


